PRINCIPLES OF MANAGEMENT,MMP201,SCHOOL OF MANAGEMENT,3
PRINCIPLES OF MARKETING,MKP205,SCHOOL OF MANAGEMENT,3
BUSINESS MATHEMATICS,MMT202,SCHOOL OF MANAGEMENT,3
INTRODUCTION TO FINANCIAL ACCOUNTING,MFA204,SCHOOL OF MANAGEMENT,3
MICROECONOMICS,MEC208,SCHOOL OF MANAGEMENT,3
BUSINESS LAW,MLW306,SCHOOL OF MANAGEMENT,3
BUSINESS STATISTICS,MST207,SCHOOL OF MANAGEMENT,3
PROFESSIONAL COMMUNICATION,MLA301,SCHOOL OF MANAGEMENT,3
OFFICE APPLICATION SOFTWARE,MIT203,SCHOOL OF MANAGEMENT,3
INTRODUCTION TO FINANCE,MFI209,SCHOOL OF MANAGEMENT,3
MACROECONOMICS,MEC302,SCHOOL OF MANAGEMENT,3
OPERATION MANAGEMENT,MOM305,SCHOOL OF MANAGEMENT,3
INTERNATIONAL BUSINESS,MIB401,SCHOOL OF MANAGEMENT,3
MANAGEMENT INFORMATION SYSTEM,MIT307,SCHOOL OF MANAGEMENT,3
BUSINESS RESEARCH METHOD,MRM402,SCHOOL OF MANAGEMENT,3
STRATEGIC MANAGEMENT,MSM403,SCHOOL OF MANAGEMENT,3
ACADEMIC WRITING (PENULISAN AKADEMIK),UCS101,"SCHOOL OF ARTS, HUMANITIES & SOCIAL SCIENCES",3
PHILOSOPHY OF EDUCATION,EPE211,SCHOOL OF EDUCATION AND COGNITIVE SCIENCE,3
ETHICS IN ASIA,UCS104,SCHOOL OF SCIENCE & TECHNOLOGY,3
MARKETING MANAGEMENT,MKM311,SCHOOL OF MANAGEMENT,3
MALAYSIAN STUDIES,MQA102,GENERAL,3
ISLAMIC STUDIES,MQA103,GENERAL,3
EDUCATIONAL PSYCHOLOGY,EEP212,SCHOOL OF EDUCATION AND COGNITIVE SCIENCE,3
DEVELOPING THE CURRICULUM,ECP213,SCHOOL OF EDUCATION AND COGNITIVE SCIENCE,3
SCHOOL AND SOCIETY,ESS221,SCHOOL OF EDUCATION AND COGNITIVE SCIENCE,3
CHILD GROWTH AND DEVELOPMENT,ECG222,SCHOOL OF EDUCATION AND COGNITIVE SCIENCE,3
PEDAGOGICAL MODELS AND STRATEGIES,EPM233,SCHOOL OF EDUCATION AND COGNITIVE SCIENCE,3
ADOLESCENT PSYCHOLOGY AND DEVELOPMENT,EAP232,SCHOOL OF EDUCATION AND COGNITIVE SCIENCE,3
INSTRUCTIONAL TECHNOLOGY AND LEARNING RESOURCES,EIT311,GENERAL,3
CHILDREN WITH SPECIAL NEEDS,ESN512,SCHOOL OF EDUCATION AND COGNITIVE SCIENCE,3
STATISTICAL METHODS N EDUCATION,ESM321,SCHOOL OF EDUCATION AND COGNITIVE SCIENCE,3
LINGUISTICS FOR LANGUAGE TEACHERS,ELL322,SCHOOL OF EDUCATION AND COGNITIVE SCIENCE,3
FUNDAMENTALS OF ENGLISH GRAMMAR,EFG331,SCHOOL OF EDUCATION AND COGNITIVE SCIENCE,3
PSYCHOLINGUISTICS IN SECOND LANGUAGE TEACHING,EPT332,SCHOOL OF EDUCATION AND COGNITIVE SCIENCE,3
SOCIOLINGUISTICS IN SECOND LANGUAGE TEACHING,EST333,SCHOOL OF EDUCATION AND COGNITIVE SCIENCE,3
READING IN SECOND LANGUAGE CONTEXTS,ERC411,SCHOOL OF EDUCATION AND COGNITIVE SCIENCE,3
WRITING IN SECOND LANGUAGE CONTEXTS,EWC412,SCHOOL OF EDUCATION AND COGNITIVE SCIENCE,3
RESEARCH METHOD IN TEACHING ENGLISH AS A SECOND LANGUAGE,ERM413,SCHOOL OF EDUCATION AND COGNITIVE SCIENCE,3
TEACHING ENGLISH AS A SECOND LANGUAGE METHODOLOGY,ETM432,SCHOOL OF EDUCATION AND COGNITIVE SCIENCE,3
TEACHING READING IN THE SECOND LANGUAGE CLASSROOM,ETR422,SCHOOL OF EDUCATION AND COGNITIVE SCIENCE,3
TEACHING WRITING IN THE SECOND LANGUAGE CLASSROOM,ETW431,SCHOOL OF EDUCATION AND COGNITIVE SCIENCE,3
TEACHING LISTENING AND SPEAKING SKILLS IN THE SECOND LANGUAGE CLASSROOM,ELS432,SCHOOL OF EDUCATION AND COGNITIVE SCIENCE,3
TEACHING GRAMMAR IN THE SECOND LANGUAGE CLASSROOM,ETG433,SCHOOL OF EDUCATION AND COGNITIVE SCIENCE,3
LANGUAGE TESTING AND EVALUATION,ETE511,SCHOOL OF EDUCATION AND COGNITIVE SCIENCE,3
COMPUTERS IN THE SECOND LANGUAGE CLASSROOM,ECC512,SCHOOL OF EDUCATION AND COGNITIVE SCIENCE,3
DRAMA AND POETRY IN ENGLISH,EDP513,SCHOOL OF EDUCATION AND COGNITIVE SCIENCE,3
SHORT STORIES IN ENGLISH,ESS521,SCHOOL OF EDUCATION AND COGNITIVE SCIENCE,3
NOVELS IN ENGLISH,ENE522,SCHOOL OF EDUCATION AND COGNITIVE SCIENCE,3
TEACHING LITERATURE IN A SECOND LANGUAGE CONTEXT,ETL531,SCHOOL OF EDUCATION AND COGNITIVE SCIENCE,3
TEACHING DRAMA AND POETRY IN A SECOND LANGUAGE CONTEXT,ETD532,SCHOOL OF EDUCATION AND COGNITIVE SCIENCE,3
TEACHING SHORT STORIES AND NOVEL IN A SECOND LANGUAGE CONTEXT,ETN533,SCHOOL OF EDUCATION AND COGNITIVE SCIENCE,3
PROJECT,EPP541,SCHOOL OF EDUCATION AND COGNITIVE SCIENCE,6
TEACHING PRACTICUM,ETP541,SCHOOL OF EDUCATION AND COGNITIVE SCIENCE,9
BAHASA KEBANGSAAN A,MQA101,GENERAL,3
COUNSELING IN SCHOOLS,ECS312,SCHOOL OF EDUCATION AND COGNITIVE SCIENCE,3
ORGANISATIONAL BEHAVIOUR,MOB303,SCHOOL OF MANAGEMENT,3
MANAGEMENT INFORMATION SYSTEM,CIS307,SCHOOL OF SCIENCE & TECHNOLOGY,3
FUNDAMENTAL CONCEPTS OF ICT,CCT201,SCHOOL OF SCIENCE & TECHNOLOGY,3
ASIAN STUDIES,UCS103,SCHOOL OF MANAGEMENT,3
ICT PROJECT MANAGEMENT,CPM399,SCHOOL OF SCIENCE & TECHNOLOGY,3
MORAL STUDIES,MQA104,GENERAL,3
STRUCTURAL DRAWING,CSD200,SCHOOL OF SCIENCE & TECHNOLOGY,3
DISCRETE MATHEMATICS,CDM300,SCHOOL OF SCIENCE & TECHNOLOGY,3
HUMAN COMPUTER INTERACTION,CHC401,SCHOOL OF SCIENCE & TECHNOLOGY,3
ACADEMIC ENGLISH I:LISTENING & SPEAKING SKILLS,GAC001,SCHOOL OF FOUNDATION STUDIES,3
COMMUNICATION SKILLS,SCS101,"SCHOOL OF ARTS, HUMANITIES & SOCIAL SCIENCES",3
COMPUTING 1: INTRODUCTION TO COMPUTING FOR ACADEMIC,GAC005,SCHOOL OF FOUNDATION STUDIES,3
ACADEMIC ENGLISH I:READING AND WRITING SKILLS,GAC002,SCHOOL OF FOUNDATION STUDIES,3
MATHEMATICS 1: FUNDAMENTALS,GAC004,SCHOOL OF FOUNDATION STUDIES,3
STUDY SKILLS FOR INDEPENDENT LEARNING,GAC003,SCHOOL OF FOUNDATION STUDIES,3
MALAYSIAN STUDIES,MPW001,SCHOOL OF FOUNDATION STUDIES,3
ENTREPRENEURSHIP IN ASIA,UCS102,SCHOOL OF MANAGEMENT,3
INFORMATION SYSTEMS ANALYSIS & DESIGN,CAD300,SCHOOL OF SCIENCE & TECHNOLOGY,3
COMPUTER PROGRAMMING,CCP203,SCHOOL OF SCIENCE & TECHNOLOGY,3
THE INTERNET & WORLD WIDE WEB,CIW306,SCHOOL OF SCIENCE & TECHNOLOGY,3
KNOWLEDGE MANAGEMENT,CKM313,SCHOOL OF SCIENCE & TECHNOLOGY,3
OBJECT ORIENTED PROGRAMMING,CCP303,SCHOOL OF SCIENCE & TECHNOLOGY,3
COMPUTER SECURITY,CCS200,SCHOOL OF SCIENCE & TECHNOLOGY,3
COMPUTER FORENSICS,CCF201,SCHOOL OF SCIENCE & TECHNOLOGY,3
INTERNET SECURITY,CIS300,SCHOOL OF SCIENCE & TECHNOLOGY,3
COST ACCOUNTING,MCA323,SCHOOL OF MANAGEMENT,3
HUMAN RESOURCE MANAGEMENT,MHS301,SCHOOL OF MANAGEMENT,3
MALAYSIAN STUDIES**,MQA102*,SCHOOL OF MANAGEMENT,3
DATABASE SYSTEM,CDS300,SCHOOL OF SCIENCE & TECHNOLOGY,3
INTRODUCTION TO MULTIMEDIA,CMM404,SCHOOL OF SCIENCE & TECHNOLOGY,3
COMPUTER COMMUNICATION & NETWORKING,CCN413,SCHOOL OF SCIENCE & TECHNOLOGY,3
OPERATING SYSTEMS,COS305,SCHOOL OF SCIENCE & TECHNOLOGY,3
SOFTWARE ENGINEERING,CSE300,SCHOOL OF SCIENCE & TECHNOLOGY,3
STATISTICAL METHODS IN ICT,CSM401,SCHOOL OF SCIENCE & TECHNOLOGY,3
EARLY DEVELOPMENT AND EXCEPTIONALITY,ESP101,SCHOOL OF EDUCATION AND COGNITIVE SCIENCE,3
INTELLECTUAL DISABILITY,ESP102,SCHOOL OF EDUCATION AND COGNITIVE SCIENCE,3
CHILDREN WITH LEARNING DIFFICULTIES,ESP103,SCHOOL OF EDUCATION AND COGNITIVE SCIENCE,3
ASSESSMENT AND EVALUATION IN SPECIAL EDUCATION,ESP104,SCHOOL OF EDUCATION AND COGNITIVE SCIENCE,3
AUTISM: THEORIES AND PRACTICE,ESP105,SCHOOL OF EDUCATION AND COGNITIVE SCIENCE,3
THEORIES OF BEHAVIOUR MANAGEMENT,ESP201,SCHOOL OF EDUCATION AND COGNITIVE SCIENCE,3
MANAGEMENT OF PHYSICAL AND MULTIPLE DISABILITIES,ESP202,SCHOOL OF EDUCATION AND COGNITIVE SCIENCE,3
PROGRAMMING FOR CHILDREN WITH SPECIAL NEEDS,ESP203,SCHOOL OF EDUCATION AND COGNITIVE SCIENCE,3
LANGUAGE DEVELOPMENT AND INTERVENTION,ESP204,SCHOOL OF EDUCATION AND COGNITIVE SCIENCE,3
INTERVENTION FOR PROBLEMS WITH LITERACY,ESP205,SCHOOL OF EDUCATION AND COGNITIVE SCIENCE,3
PRACTICUM 1,ESP106,SCHOOL OF EDUCATION AND COGNITIVE SCIENCE,9
PRACTICUM 2,ESP206,SCHOOL OF EDUCATION AND COGNITIVE SCIENCE,9
COMPUTER ETHICS & CYBERLAW,CEL210,SCHOOL OF SCIENCE & TECHNOLOGY,3
INTRODUCTION TO E-COMMERCE,MCI352,SCHOOL OF MANAGEMENT,3
INTERNATIONAL MARKETING,MKN412,SCHOOL OF MANAGEMENT,3
DATA WAREHOUSING,CDW310,SCHOOL OF SCIENCE & TECHNOLOGY,3
CUSTOMER RELATIONSHIP MANAGEMENT,MKR313,SCHOOL OF MANAGEMENT,3
CONSUMER BEHAVIOUR,MKB411,SCHOOL OF MANAGEMENT,4
PHILOSOPHY OF EDUCATION,EPE211**,SCHOOL OF EDUCATION AND COGNITIVE SCIENCE,3
EVALUATION AND TESTING IN THE CLASSROOM,ETC312,SCHOOL OF EDUCATION AND COGNITIVE SCIENCE,3
E-ADVERTISING,MCA355,SCHOOL OF MANAGEMENT,3
INTERNET MARKETING,MKI314,SCHOOL OF MANAGEMENT,3
ADVERTISING AND DIRECT MARKETING,MKA315,SCHOOL OF MANAGEMENT,3
PRINCIPLES & DESIGN ANIMATION,CAN532,SCHOOL OF SCIENCE & TECHNOLOGY,3
MULTIMEDIA WEB DEVELOPMENT,CMW503,SCHOOL OF SCIENCE & TECHNOLOGY,3
MULTIMEDIA SYSTEM,CMS407,SCHOOL OF SCIENCE & TECHNOLOGY,3
E-COMMERCE,CEC200,SCHOOL OF SCIENCE & TECHNOLOGY,3
CUSTOMER RELATIONSHIP MANAGEMENT,CRM300,SCHOOL OF SCIENCE & TECHNOLOGY,3
FUNDAMENTAL OF ENTERPRISE NETWORKING,CEN201,SCHOOL OF SCIENCE & TECHNOLOGY,3
LAN TECHNOLOGY,CLT401,SCHOOL OF SCIENCE & TECHNOLOGY,3
SWITCHING TECHNOLOGY,CST301,SCHOOL OF SCIENCE & TECHNOLOGY,3
ACCOUNTING INFORMATION SYSTEM,MAS764,SCHOOL OF SCIENCE & TECHNOLOGY,3
IS STRATEGIC PLANNING,CSP398,SCHOOL OF SCIENCE & TECHNOLOGY,3
IS AUDIT & CONTROL,CAC370,SCHOOL OF SCIENCE & TECHNOLOGY,3
BUSINESS COMMUNICATION,MHC502,SCHOOL OF MANAGEMENT,3
PROJECT MANAGEMENT,MOP504,SCHOOL OF MANAGEMENT,3
SERVICE QUALITY MANAGEMENT,MCS501,SCHOOL OF MANAGEMENT,3
INTEGRATED MARKETING COMMUNICATION,MKC312,SCHOOL OF MANAGEMENT,3
INTERMEDIATE E-COMMERCE,MCI353,SCHOOL OF MANAGEMENT,3
ENHANCING TEACHER PROFESSIONALISM,EML411,SCHOOL OF EDUCATION AND COGNITIVE SCIENCE,3
TEACHING GRAMMAR,ETG321,SCHOOL OF EDUCATION AND COGNITIVE SCIENCE,3
NETWORK SECURITY,CNS400,SCHOOL OF SCIENCE & TECHNOLOGY,4
ETHICAL HACKING - METHOD AND TECHNIQUES,CEH234,SCHOOL OF SCIENCE & TECHNOLOGY,4
INTERNET AND INTRANET MANAGEMENT AND SECURITY,CII234,SCHOOL OF SCIENCE & TECHNOLOGY,4
SECURED SOFTWARE DEVELOPMENT,CCS401,SCHOOL OF SCIENCE & TECHNOLOGY,4
SECURED PROGRAMMING,CSP234,SCHOOL OF SCIENCE & TECHNOLOGY,4
INSTRUSION DETECTION SYSTEM,CID234,SCHOOL OF SCIENCE & TECHNOLOGY,4
SOFTWARE PROJECT MANAGEMENT AND PRACTICES,CPM234,SCHOOL OF SCIENCE & TECHNOLOGY,4
REQUIREMENT ANALYSIS METHODOLOGIES,CRA234,SCHOOL OF SCIENCE & TECHNOLOGY,4
SOFTWARE SPECIFICATIONS AND ARCHITECTURAL DESIGN,CSS234,SCHOOL OF SCIENCE & TECHNOLOGY,4
PROFESSIONAL INDUSTRIAL PROJECT III,CIT404,SCHOOL OF SCIENCE & TECHNOLOGY,6
TECHNICAL SOFTWARE DEVELOPMENT,CTS234,SCHOOL OF SCIENCE & TECHNOLOGY,4
SOFTWARE TESTING AND MAINTENANCE,CST234,SCHOOL OF SCIENCE & TECHNOLOGY,4
SOFTWARE QUALITY ASSURANCE,CSQ234,SCHOOL OF SCIENCE & TECHNOLOGY,4
WEB DESIGN AND PROGRAMMING,CWD234,SCHOOL OF SCIENCE & TECHNOLOGY,4
OPERATING SYSTEM FOR MOBILE DEVICE,COS234,SCHOOL OF SCIENCE & TECHNOLOGY,4
MOBILE DEVICE PROGRAMMING,CMP234,SCHOOL OF SCIENCE & TECHNOLOGY,4
MULTIMEDIA DESIGN AND SCRIPTING,CMD234,SCHOOL OF SCIENCE & TECHNOLOGY,4
WEB AND MULTIMEDIA APPLICATION DEVELOPMENT,CWM234,SCHOOL OF SCIENCE & TECHNOLOGY,4
MOBILE COMMERCE,CMC234,SCHOOL OF SCIENCE & TECHNOLOGY,4
EVENT MANAGEMENT,MEM501,SCHOOL OF MANAGEMENT,3
INDUSTRIAL TRAINING,UCS599,SCHOOL OF MANAGEMENT,6
PROJECT,UCS598,SCHOOL OF MANAGEMENT,6
DIGITAL ANIMATION DEVELOPMENT,CAN401,SCHOOL OF SCIENCE & TECHNOLOGY,3
AUDIO TECHNOLOGY FOR MULTIMEDIA,CAT415,SCHOOL OF SCIENCE & TECHNOLOGY,3
MULTIMEDIA AUTHORING AND SCRIPTING,CMA400,SCHOOL OF SCIENCE & TECHNOLOGY,3
GAME DESIGN AND DEVELOPMENT,CGD400,SCHOOL OF SCIENCE & TECHNOLOGY,3
VIDEO TECHNOLOGY FOR MULTIMEDIA,CVT428,SCHOOL OF SCIENCE & TECHNOLOGY,3
VIRTUAL REALITY,CVR400,SCHOOL OF SCIENCE & TECHNOLOGY,3
PRINCIPLES OF ECONOMICS,MPE211,SCHOOL OF MANAGEMENT,3
REFLECTIVE LEARNING LOG,MRL212,SCHOOL OF MANAGEMENT,2
WORK BASED PORTFOLIO,MWB211,SCHOOL OF MANAGEMENT,2
FUNDAMENTALS OF MANUFACTURING MANAGEMENT,MFM212,SCHOOL OF MANAGEMENT,4
PURCHASING SUPPLY MANAGEMENT,MPS216,SCHOOL OF MANAGEMENT,4
CONSUMER BEHAVIOUR,MKB412,SCHOOL OF MANAGEMENT,4
MARKETING MANAGEMENT,MKM312,SCHOOL OF MANAGEMENT,4
INVENTORY CONTROL,MIC214,SCHOOL OF MANAGEMENT,4
LOGISTICS SUPPLY MANAGEMENT,MLS215,SCHOOL OF MANAGEMENT,4
INTERNET MARKETING,MKI315,SCHOOL OF MANAGEMENT,4
PRODUCTION PLANNING AND CONTROL,MPC213,SCHOOL OF MANAGEMENT,4
CHILD PSYCHOLOGY,ECE113,SCHOOL OF EDUCATION AND COGNITIVE SCIENCE,3
OBSERVATION AND ASSESSMENT IN THE EARLY YEARS,ECE122,SCHOOL OF EDUCATION AND COGNITIVE SCIENCE,3
CURRICULUM AND TEACHING STRATEGIES IN EARLY CHILDHOOD EDUCATION,ECE123,SCHOOL OF EDUCATION AND COGNITIVE SCIENCE,3
"CREATIVE ARTS, MUSIC AND MOVEMENT",ECE222,SCHOOL OF EDUCATION AND COGNITIVE SCIENCE,4
FOUNDATION OR EARLY CHILDHOOD EDUCATION,ECE132,SCHOOL OF EDUCATION AND COGNITIVE SCIENCE,3
GROWTH AND DEVELOPMENT OF CHILDREN,ECE133,SCHOOL OF EDUCATION AND COGNITIVE SCIENCE,3
MALAYSIAN STUDIES,MPW102,GENERAL,3
ISLAMIC STUDIES,MPW103,GENERAL,3
MORAL STUDIES,MPW104,GENERAL,3
BAHASA MELAYU DAN KOMUNIKASI,MPW101,GENERAL,3
DECISION SUPPORT SYSTEM,CDS320,SCHOOL OF SCIENCE & TECHNOLOGY,3
APPLICATION PROGRAMMING,CAP214,SCHOOL OF SCIENCE & TECHNOLOGY,4
DESIGN LANGUAGE: UNIFIED MODELLING LANGUAGE (UML),CDL214,SCHOOL OF SCIENCE & TECHNOLOGY,4
USER INTERFACE DESIGN,CUI214,SCHOOL OF SCIENCE & TECHNOLOGY,4
SOFTWARE INTEGRATION & ARCHITECTURE,CSI214,SCHOOL OF SCIENCE & TECHNOLOGY,4
NETWORKING INTERFACE AND PROGRAMMING,CNI214,SCHOOL OF SCIENCE & TECHNOLOGY,4
SOFTWARE PROJECT MANAGEMENT,CSP214,SCHOOL OF SCIENCE & TECHNOLOGY,4
PROFESSIONAL INDUSTRIAL PROJECT L,CIP216,SCHOOL OF SCIENCE & TECHNOLOGY,4
PLATFORM-BASED ENTERPRISE PROGRAMMING,CPE224,SCHOOL OF SCIENCE & TECHNOLOGY,4
COMPUTER SYSTEMS AND BUSINESS PROCESS,CCS224,SCHOOL OF SCIENCE & TECHNOLOGY,4
DATABASE DESIGN AND PROGRAMMING,CDD224,SCHOOL OF SCIENCE & TECHNOLOGY,4
SERVICE ORIENTED ARCHITECTURE AND WEB SERVICES,CSO224,SCHOOL OF SCIENCE & TECHNOLOGY,4
WEB DEVELOPMENT AND TECHNOLOGY,CWD224,SCHOOL OF SCIENCE & TECHNOLOGY,4
BUSNIESS OPERATIONS AND SERVICES,CBO224,SCHOOL OF SCIENCE & TECHNOLOGY,4
PROFESSIONAL INDUSTRIAL PROJECT LL,CIP226,SCHOOL OF SCIENCE & TECHNOLOGY,4
SERVICE COMPUTING AND TECHNOLOGY,CCT234,SCHOOL OF SCIENCE & TECHNOLOGY,4
SERVICE SCIENCE ARCHITECTURE FOR ENTERPRISE,CAS234,SCHOOL OF SCIENCE & TECHNOLOGY,4
SOA COMPONENT INTEGRATION,CSO234,SCHOOL OF SCIENCE & TECHNOLOGY,4
SERVICE LAYER AGREEMENT AND CONTRACT,CSL234,SCHOOL OF SCIENCE & TECHNOLOGY,4
BUSINESS PROCESS INTEGRATION TECHNIQUES AND METHODOLOGIES,CBP234,SCHOOL OF SCIENCE & TECHNOLOGY,4
BUSINESS PROCESS MODELLING LANGUAGE,CBL234,SCHOOL OF SCIENCE & TECHNOLOGY,4
BASIC 3D MODELING,CBD316,SCHOOL OF SCIENCE & TECHNOLOGY,6
BASIC DRAWING,CBD313,SCHOOL OF SCIENCE & TECHNOLOGY,3
CREATIVE THINKING,CCT313,SCHOOL OF SCIENCE & TECHNOLOGY,3
LIFE DRAWING,CLD100,SCHOOL OF SCIENCE & TECHNOLOGY,3
DIGITAL IMAGING,CDI323,SCHOOL OF SCIENCE & TECHNOLOGY,3
BROADBAND COMMUNICATION,CBC493,SCHOOL OF SCIENCE & TECHNOLOGY,3
WEB PROGRAMMING,CWP493,SCHOOL OF SCIENCE & TECHNOLOGY,3
ADVANCED SOFTWARE ENGINEERING,CAS493,SCHOOL OF SCIENCE & TECHNOLOGY,3
CO-CURRICULAR ACTIVITIES,ESS222,SCHOOL OF EDUCATION AND COGNITIVE SCIENCE,3
INTRODUCTION TO NETWORK PROGRAMMING AND DESIGN,CNP308,SCHOOL OF SCIENCE & TECHNOLOGY,3
CRITICAL THINKING AND PROBLEM SOLVING SKILLS,FS1012,SCHOOL OF SCIENCE & TECHNOLOGY,3
2D ANIMATION,CAN333,SCHOOL OF SCIENCE & TECHNOLOGY,3
ANIMATION HISTORY,CAH333,SCHOOL OF SCIENCE & TECHNOLOGY,3
VISUAL SCREEN & PERCEPTION,CVS323,SCHOOL OF SCIENCE & TECHNOLOGY,3
SOCIO-EMOTIONAL DEVELOPMENT OF CHILDREN,ECE213,SCHOOL OF EDUCATION AND COGNITIVE SCIENCE,3
SEJARAH DAN PERKEMBANGAN BAHASA MELAYU,ESP313,SCHOOL OF EDUCATION AND COGNITIVE SCIENCE,3
INTRODUCTION TO MORAL EDUCATION,EEM521,SCHOOL OF EDUCATION AND COGNITIVE SCIENCE,3
PENGANTAR LINGUISTIK,EPL311,SCHOOL OF EDUCATION AND COGNITIVE SCIENCE,3
FONETIK DAN FONOLOGI,EFF312,SCHOOL OF EDUCATION AND COGNITIVE SCIENCE,3
CHILDREN WITH SPECIAL NEEDS,ECE223,SCHOOL OF EDUCATION AND COGNITIVE SCIENCE,3
PHILOSOPHY OF EDUCATION,EPE211*,SCHOOL OF EDUCATION AND COGNITIVE SCIENCE,3
HOME-SCHOOL PARTNERSHIP AND MANAGEMENT OF CHILDREN DEVELOPMENT CENTRE,ECE231,SCHOOL OF EDUCATION AND COGNITIVE SCIENCE,3
SCIENCE FOR YOUNG CHILDREN,ECE221,SCHOOL OF EDUCATION AND COGNITIVE SCIENCE,3
MATHEMATICS FOR YOUNG CHILDREN,ECE224,SCHOOL OF EDUCATION AND COGNITIVE SCIENCE,3
CORPORATE FINANCE,MFC324,SCHOOL OF MANAGEMENT,3
CHILDREN LEARNING MATHEMATICS,ECE232,SCHOOL OF EDUCATION AND COGNITIVE SCIENCE,3
TEACHING METHODS AND STRATEGIES IN MORAL EDUCATION,EEM522,SCHOOL OF EDUCATION AND COGNITIVE SCIENCE,3
RESEARCH IN CLASSROOM 1,ECR531,SCHOOL OF EDUCATION AND COGNITIVE SCIENCE,3
SEMANTIK DAN PERISTILAHAN DALAM BAHASA MELAYU,ESP323,SCHOOL OF EDUCATION AND COGNITIVE SCIENCE,3
KURIKULUM BAHASA MELAYU SEKOLAH RENDAH,EKM331,SCHOOL OF EDUCATION AND COGNITIVE SCIENCE,3
METODOLOGI BAHASA MELAYU SEKOLAH RENDAH,EMM333,SCHOOL OF EDUCATION AND COGNITIVE SCIENCE,3
PRINCIPLES OF TAXATION,MAT334,SCHOOL OF MANAGEMENT,3
INTERNATIONAL FINANCE,MFI422,SCHOOL OF MANAGEMENT,3
"CHILDREN'S HEALTH, NUTRITION AND SAFETY",ECE212,SCHOOL OF EDUCATION AND COGNITIVE SCIENCE,4
LANGUAGE AND LITERACY IN YOUNG CHILDREN,ECE211,SCHOOL OF EDUCATION AND COGNITIVE SCIENCE,4
TAMADUN ISLAM DAN TAMADUN ASIA,MPU3123,"SCHOOL OF ARTS, HUMANITIES & SOCIAL SCIENCES",3
HUBUNGAN ETNIK,MPU3113,"SCHOOL OF ARTS, HUMANITIES & SOCIAL SCIENCES",3
ADVANCED WEB PROGRAMMING,CAW493,SCHOOL OF SCIENCE & TECHNOLOGY,3
RELIGION,CRE493,SCHOOL OF SCIENCE & TECHNOLOGY,3
ACADEMIC WRITING,MPU3222,"SCHOOL OF ARTS, HUMANITIES & SOCIAL SCIENCES",2
BASIC 3D ANIMATION,CBD346,SCHOOL OF SCIENCE & TECHNOLOGY,6
PSYCHOLINGUISTIC,EPL321,SCHOOL OF EDUCATION AND COGNITIVE SCIENCE,3
SOCIOLINGUISTIC,ESL322,SCHOOL OF EDUCATION AND COGNITIVE SCIENCE,3
ASIAN ART HISTORY,CAA100,SCHOOL OF SCIENCE & TECHNOLOGY,3
ADVANCED 3D MODELING,CAD336,SCHOOL OF SCIENCE & TECHNOLOGY,6
BASIC 3D ANIMATION,CBA300,SCHOOL OF SCIENCE & TECHNOLOGY,6
DIGITAL COMPOSITING,CDC200,SCHOOL OF SCIENCE & TECHNOLOGY,3
FILM GENRES STUDIES,CFG100,SCHOOL OF SCIENCE & TECHNOLOGY,3
MOTION GRAPHIC DESIGN,CMG300,SCHOOL OF SCIENCE & TECHNOLOGY,3
MATERIAL METHODOLOGIES,CMM200,SCHOOL OF SCIENCE & TECHNOLOGY,3
PHOTOGRAPHY ARTS,CPA100,SCHOOL OF SCIENCE & TECHNOLOGY,3
SCRIPT WRITING,CSW100,SCHOOL OF SCIENCE & TECHNOLOGY,3
WESTERN ART HISTORY,CWA303,SCHOOL OF SCIENCE & TECHNOLOGY,3
PROJECT 1,CPP402,SCHOOL OF SCIENCE & TECHNOLOGY,9
PROJECT2,CPP403,SCHOOL OF SCIENCE & TECHNOLOGY,9
INDUSTRIAL TRAINING,CIT401,SCHOOL OF SCIENCE & TECHNOLOGY,6
SOFT AND RIGID BODIES,CSR400,SCHOOL OF SCIENCE & TECHNOLOGY,3
CHARACTER ANIMATION,CCA400,SCHOOL OF SCIENCE & TECHNOLOGY,3
CHARACTER RIGGING,CCR400,SCHOOL OF SCIENCE & TECHNOLOGY,3
PARTICLES AND CLOTH SIMULATION,CPC400,SCHOOL OF SCIENCE & TECHNOLOGY,3
FINAL PROJECT,CPP401,SCHOOL OF SCIENCE & TECHNOLOGY,4
PROJECT PROPOSAL,CPP400,SCHOOL OF SCIENCE & TECHNOLOGY,2
INDUSTRIAL TRAINING,CIT400,SCHOOL OF SCIENCE & TECHNOLOGY,6
ROUTING PROTOCOLS AND CONCEPTS,CRP400,SCHOOL OF SCIENCE & TECHNOLOGY,3
ENTERPRISE NETWORK MANAGEMENT,CEN401,SCHOOL OF SCIENCE & TECHNOLOGY,3
WIRELESS TECHNOLOGY,CWT400,SCHOOL OF SCIENCE & TECHNOLOGY,3
DISTRIBUTED SYSTEMS,CDS400,SCHOOL OF SCIENCE & TECHNOLOGY,3
SWITCHING TECHNOLOGIES,CST400,SCHOOL OF SCIENCE & TECHNOLOGY,3
MOBILE COMMUNICATION,CMC400,SCHOOL OF SCIENCE & TECHNOLOGY,3
REQUIREMENTS ENGINEERING,CRE400,SCHOOL OF SCIENCE & TECHNOLOGY,3
AGILE SOFTWARE DEVELOPMENT,CAS400,SCHOOL OF SCIENCE & TECHNOLOGY,3
SOFTWARE ARCHITECTURE AND DESIGN,CSA400,SCHOOL OF SCIENCE & TECHNOLOGY,3
SOFTWARE ENGINEERING FOR REAL-TIME SYSTEMS,CSE400,SCHOOL OF SCIENCE & TECHNOLOGY,3
SOFTWARE CONSTRUCTION,CSC320,SCHOOL OF SCIENCE & TECHNOLOGY,3
SOFTWARE INTEGRATION AND IMPROVEMENT,CSI400,SCHOOL OF SCIENCE & TECHNOLOGY,3
SOFTWARE QUALITY ASSURANCE,CSQ400,SCHOOL OF SCIENCE & TECHNOLOGY,3
SOFTWARE TESTING,CST401,SCHOOL OF SCIENCE & TECHNOLOGY,3
USABILITY ENGINEERING,CUE400,SCHOOL OF SCIENCE & TECHNOLOGY,3
COUNSELING IN EDUCATION,ECS212,SCHOOL OF EDUCATION AND COGNITIVE SCIENCE,3
ISSUE AND TRENDS IN MORAL EDUCATION,EEM532,SCHOOL OF EDUCATION AND COGNITIVE SCIENCE,3
ASSESSMENT IN MORAL EDUCATION,EEM513,SCHOOL OF EDUCATION AND COGNITIVE SCIENCE,3
RESEARCH IN CLASSROOM 11,ECR533,SCHOOL OF EDUCATION AND COGNITIVE SCIENCE,3
PENILAIAN BAHASA MELAYU SEKOLAH RENDAH,EPM414,SCHOOL OF EDUCATION AND COGNITIVE SCIENCE,3
PENGAJARAN KEMAHIRAN MENDENGAR DAN BERTUTUR DALAM BAHASA MELAYU,EMB412,SCHOOL OF EDUCATION AND COGNITIVE SCIENCE,3
PENGAJARAN KEMAHIRAN MEMBACA DALAM BAHASA MELAYU,EMB415,SCHOOL OF EDUCATION AND COGNITIVE SCIENCE,3
HUMANITIES FOR YOUNG CHILDREN,ECE233,SCHOOL OF EDUCATION AND COGNITIVE SCIENCE,3
ALGORITHM,CPJ100,SCHOOL OF SCIENCE & TECHNOLOGY,1
ENGINEERING ENGLISH,CPJ101,SCHOOL OF SCIENCE & TECHNOLOGY,2
CIVICS,CPJ102,SCHOOL OF SCIENCE & TECHNOLOGY,3
NUMERICAL COMPUTATION,CPJ103,SCHOOL OF SCIENCE & TECHNOLOGY,1
NETWORKING 2 (CCNA),CPJ104,SCHOOL OF SCIENCE & TECHNOLOGY,2
ENGLISH,CPJ105,SCHOOL OF SCIENCE & TECHNOLOGY,2
COMPUTER GRAPHICS,CPJ110,SCHOOL OF SCIENCE & TECHNOLOGY,1
WEB APPLICATION PROGRAMMING,CPJ111,SCHOOL OF SCIENCE & TECHNOLOGY,2
IMAGE PROCESSING,CPJ112,SCHOOL OF SCIENCE & TECHNOLOGY,2
NETWORK SECURITY,CPJ113,SCHOOL OF SCIENCE & TECHNOLOGY,2
EMBEDDED SYSTEM,CPJ114,SCHOOL OF SCIENCE & TECHNOLOGY,2
CONSUMER BEHAVIOUR,CPJ106,SCHOOL OF SCIENCE & TECHNOLOGY,1
BANKING SYSTEM,CPJ107,SCHOOL OF SCIENCE & TECHNOLOGY,3
SECURITY INFORMATION SYSTEM,CPJ108,SCHOOL OF SCIENCE & TECHNOLOGY,2
VISUAL PROGRAMMING VB.NET,CPJ109,SCHOOL OF SCIENCE & TECHNOLOGY,3
FINAL PROJECT,CPJ400,SCHOOL OF SCIENCE & TECHNOLOGY,4
ISLAMIC FINANCIAL SYSTEM,MFS322,SCHOOL OF MANAGEMENT,3
INVESTMENT ANALYSIS,MFA325,SCHOOL OF MANAGEMENT,3
FINANCIAL ACCOUNTING AND REPORTING,MCA326,SCHOOL OF MANAGEMENT,3
MANAGEMENT ACCOUNTING,MCA327,SCHOOL OF MANAGEMENT,3
AUDITING,MAD333,SCHOOL OF MANAGEMENT,3
FINANCIAL MARKETS AND INSTITUTIONS,MFM421,SCHOOL OF MANAGEMENT,3
MALAYSIAN STUDIES 1 (PENGAJIAN MALAYSIA 1),MPU2173,"SCHOOL OF ARTS, HUMANITIES & SOCIAL SCIENCES",3
INFORMATION LITERACY AND RESEARCH SKILLS 1,MPU2222,"SCHOOL OF ARTS, HUMANITIES & SOCIAL SCIENCES",2
ENTREPRENEURSHIP AND ETHICS IN MALAYSIA 1,MPU2312,"SCHOOL OF ARTS, HUMANITIES & SOCIAL SCIENCES",2
SOCIAL RESPONSIBILITY PROJECT (PROJEK KHIDMAT MASYARAKAT),MPU2412,"SCHOOL OF ARTS, HUMANITIES & SOCIAL SCIENCES",2
BAHASA MELAYU KOMUNIKASI 2,MPU3133,"SCHOOL OF ARTS, HUMANITIES & SOCIAL SCIENCES",3
MALAYSIAN STUDIES LL,MPU3173,"SCHOOL OF ARTS, HUMANITIES & SOCIAL SCIENCES",3
COMPARATIVE ETHICS,MPU3312,"SCHOOL OF ARTS, HUMANITIES & SOCIAL SCIENCES",2
SOCIAL RESPONSIBILITY PROJECT,MPU3412,"SCHOOL OF ARTS, HUMANITIES & SOCIAL SCIENCES",2
AKHLAQ,SAH123,"SCHOOL OF ARTS, HUMANITIES & SOCIAL SCIENCES",3
AL-HADITH,SHA124,"SCHOOL OF ARTS, HUMANITIES & SOCIAL SCIENCES",3
AQIDAH,SAK119,"SCHOOL OF ARTS, HUMANITIES & SOCIAL SCIENCES",3
ASAS FIQH (BASICS OF FIQH),SAF120,"SCHOOL OF ARTS, HUMANITIES & SOCIAL SCIENCES",3
ASAS BAHASA ARAB (BASIC OF ARABIC LANGUAGE),SAB127,"SCHOOL OF ARTS, HUMANITIES & SOCIAL SCIENCES",3
JAWI,SJA126,"SCHOOL OF ARTS, HUMANITIES & SOCIAL SCIENCES",3
FALSAFAH PENDIDIKAN ISLAM (PHILOSOPHY OF ISLAMIC EDUCATION),SFI128,"SCHOOL OF ARTS, HUMANITIES & SOCIAL SCIENCES",3
SIRAH (ISLAMIC HISTORY),SSI122,"SCHOOL OF ARTS, HUMANITIES & SOCIAL SCIENCES",3
TAFSIR AL-QURAN,STQ125,"SCHOOL OF ARTS, HUMANITIES & SOCIAL SCIENCES",3
USUL FIQH,SUF121,"SCHOOL OF ARTS, HUMANITIES & SOCIAL SCIENCES",3
INFORMATION LITERACY AND RESEARCH SKILLS 2,UCS105,"SCHOOL OF ARTS, HUMANITIES & SOCIAL SCIENCES",3
ENTREPRENEURSHIP AND ETHICS IN MALAYSIA 2,UCS106,"SCHOOL OF ARTS, HUMANITIES & SOCIAL SCIENCES",3
SCIENCE FOR YOUNG LEARNERS,ECE313,SCHOOL OF EDUCATION AND COGNITIVE SCIENCE,3
LEARNING DISABILITIES IN CHILDREN,ECE311,SCHOOL OF EDUCATION AND COGNITIVE SCIENCE,3
EDUCATIONAL PSYCHOLOGY AND TEACHING,EPT111,SCHOOL OF EDUCATION AND COGNITIVE SCIENCE,4
PHILOSOPHICAL FOUNDATIONS OF TEACHING,EFT112,SCHOOL OF EDUCATION AND COGNITIVE SCIENCE,3
"SCHOOL, SOCIETY AND TEACHING",EST113,SCHOOL OF EDUCATION AND COGNITIVE SCIENCE,4
TECHNOLOGY AND CHILDREN,ECE131,SCHOOL OF EDUCATION AND COGNITIVE SCIENCE,3
LANGUAGE AND LITERACY FOR YOUNG CHILDREN,ECE321,SCHOOL OF EDUCATION AND COGNITIVE SCIENCE,3
TECHNOLOGY FOR YOUNG CHILDREN,ECE322,SCHOOL OF EDUCATION AND COGNITIVE SCIENCE,3
PERMUAFAKATAN KELUARGA DAN SEKOLAH,ECE323,SCHOOL OF EDUCATION AND COGNITIVE SCIENCE,3
LANGUAGE TESTING AND EVALUATION,ETE411,SCHOOL OF EDUCATION AND COGNITIVE SCIENCE,3
COMPUTERS IN SECOND LANGUAGE CLASSROOM,EEC412,SCHOOL OF EDUCATION AND COGNITIVE SCIENCE,3
INTRODUCTION TO MORAL EDUCATION,EEM421,SCHOOL OF EDUCATION AND COGNITIVE SCIENCE,3
PENGAJARAN DAN PEMBELAJARAN BAHASA MELAYU BERBANTUKAN KOMPUTER,EPP411,SCHOOL OF EDUCATION AND COGNITIVE SCIENCE,3
PENGAJARAN KEMAHIRAN MENULIS DALAM BAHASA MELAYU,EMM413,SCHOOL OF EDUCATION AND COGNITIVE SCIENCE,3
TEACHING PRACTICUM,ETP441,SCHOOL OF EDUCATION AND COGNITIVE SCIENCE,6
PRACTICUM,ECE331,SCHOOL OF EDUCATION AND COGNITIVE SCIENCE,6
TEACHING METHODS AND STRATEGIES,EMS121,SCHOOL OF EDUCATION AND COGNITIVE SCIENCE,4
"CURRICULUM DESIGN, DEVELOPMENT & IMPLEMANTATION",ECD122,SCHOOL OF EDUCATION AND COGNITIVE SCIENCE,4
HUBUNGAN ETNIK,MPU113,SCHOOL OF EDUCATION AND COGNITIVE SCIENCE,3
TEACHING METHODS AND STRATEGIES IN MORAL EDUCATION,EEM422,SCHOOL OF EDUCATION AND COGNITIVE SCIENCE,3
"CHILDREN'S HEALTH, NUTRITION AND SAFETY",ECE333,SCHOOL OF EDUCATION AND COGNITIVE SCIENCE,3
AUDITING,MAU317,SCHOOL OF MANAGEMENT,3
PRINCIPLES OF TAXATION,MPT318,SCHOOL OF MANAGEMENT,3
COST ACCOUNTING,MCA314,SCHOOL OF MANAGEMENT,3
FINANCIAL ACCOUNTING AND REPORTING,MAR409,SCHOOL OF MANAGEMENT,3
MANAGEMENT ACCOUNTING,MMA316,SCHOOL OF MANAGEMENT,3
E-ADVERTISING,MEA407,SCHOOL OF MANAGEMENT,3
INTRODUCTION TO E-COMMERCE,MIE312,SCHOOL OF MANAGEMENT,3
INTERMEDIATE E-COMMERCE,MIE406,SCHOOL OF MANAGEMENT,3
MICROECONOMICS,MEC207,SCHOOL OF MANAGEMENT,3
INVESTMENT ANALYSIS,MIA408,SCHOOL OF MANAGEMENT,3
CORPORATE FINANCE,MCF315,SCHOOL OF MANAGEMENT,3
INTRODUCTION TO FINANCE,MIF208,SCHOOL OF MANAGEMENT,3
ISLAMIC FINANCIAL SYSTEM,MIF313,SCHOOL OF MANAGEMENT,3
OFFICE APPLICATION SOFTWARE,MOA203,SCHOOL OF MANAGEMENT,3
MANAGEMENT INFORMATION SYSTEM,MIS306,SCHOOL OF MANAGEMENT,3
ADVERTISING AND DIRECT MARKETING,MAM311,SCHOOL OF MANAGEMENT,3
CONSUMER BEHAVIOUR,MCB404,SCHOOL OF MANAGEMENT,3
INTEGRATED MARKETING COMMUNICATION,MMC308,SCHOOL OF MANAGEMENT,3
INTERNET MARKETING,MIM310,SCHOOL OF MANAGEMENT,3
MARKETING MANAGEMENT,MMM307,SCHOOL OF MANAGEMENT,3
INTERNATIONAL MARKETING,MIM405,SCHOOL OF MANAGEMENT,3
PRINCIPLES OF MARKETING,MPM205,SCHOOL OF MANAGEMENT,3
CUSTOMER RELATIONSHIP MANAGEMENT,MCR309,SCHOOL OF MANAGEMENT,3
PROFESSIONAL COMMUNICATION,MPC301,SCHOOL OF MANAGEMENT,3
BUSINESS LAW,MBL305,SCHOOL OF MANAGEMENT,3
PRINCIPLES OF MANAGEMENT,MPM201,SCHOOL OF MANAGEMENT,3
BUSINESS MATHEMATICS,MBM202,SCHOOL OF MANAGEMENT,3
OPERATION MANAGEMENT,MOM304,SCHOOL OF MANAGEMENT,3
BUSINESS STATISTICS,MBS206,SCHOOL OF MANAGEMENT,3
PROJECT,MPP498,SCHOOL OF MANAGEMENT,6
INDUSTRIAL TRAINING,MIT499,SCHOOL OF MANAGEMENT,6
CONSUMER BEHAVIOUR,MCB218,SCHOOL OF MANAGEMENT,4
INTERNET MARKETING,MIM219,SCHOOL OF MANAGEMENT,4
MARKETING MANAGEMENT,MMM217,SCHOOL OF MANAGEMENT,4
REFLECTIVE LEARNING LOG,MLR210,SCHOOL OF MANAGEMENT,2
ASSESSMENT IN EDUCATION,EAE131,SCHOOL OF EDUCATION AND COGNITIVE SCIENCE,4
TECHNOLOGY INTEGRATION IN TEACHING,ETI132,SCHOOL OF EDUCATION AND COGNITIVE SCIENCE,4
KESUSASTERAAN MELAYU,EKM322,SCHOOL OF EDUCATION AND COGNITIVE SCIENCE,3
MUZIK DAN PERGERAKAN KANAK-KANAK,ECE332,SCHOOL OF EDUCATION AND COGNITIVE SCIENCE,3
VISUAL ARTS AND CRAFTS FOR CHILDREN,ECE334,SCHOOL OF EDUCATION AND COGNITIVE SCIENCE,3
MATHEMATICS FOR YOUNG CHILDREN,ECE335,SCHOOL OF EDUCATION AND COGNITIVE SCIENCE,3
COMPUTERS IN THE SECOND LANGUAGE CLASSROOM,ECC412,SCHOOL OF EDUCATION AND COGNITIVE SCIENCE,3
RESEARCH IN CLASSROOM 1,ERC431,SCHOOL OF EDUCATION AND COGNITIVE SCIENCE,3
CHILDREN WITH SPECIAL NEEDS,ESN412,SCHOOL OF EDUCATION AND COGNITIVE SCIENCE,3
TEACHING DRAMA AND POETRY IN A SECOND LANGUAGE CONTEXT,ETD432,SCHOOL OF EDUCATION AND COGNITIVE SCIENCE,3
TEACHING LITERATURE IN A SECOND LANGUAGE CONTEXT,ETL431,SCHOOL OF EDUCATION AND COGNITIVE SCIENCE,3
TEACHING SHORT STORIES AND NOVEL IN A SECOND LANGUAGE CONTEXT,ETN433,SCHOOL OF EDUCATION AND COGNITIVE SCIENCE,3
ISSUE AND TRENDS IN MORAL EDUCATION,EEM432,SCHOOL OF EDUCATION AND COGNITIVE SCIENCE,3
PRACTICUM,MPR499,SCHOOL OF MANAGEMENT,6
ENGLISH SPEAKING AND LISTENING SKILLS,CPJ115,SCHOOL OF SCIENCE & TECHNOLOGY,2
MOBILE COMPUTING FOR MULTIMEDIA,CMC401,SCHOOL OF SCIENCE & TECHNOLOGY,3
ASSESSMENT IN MORAL EDUCATION,EEM433,SCHOOL OF EDUCATION AND COGNITIVE SCIENCE,3
RESEARCH IN CLASSROOM 2,EPP442,SCHOOL OF EDUCATION AND COGNITIVE SCIENCE,3
TECHNICAL DOCUMENTATION,CTD400,SCHOOL OF SCIENCE & TECHNOLOGY,4
NETWORK INFRASTRUCTURE DESIGN,CNI400,SCHOOL OF SCIENCE & TECHNOLOGY,4
MANAGEMENT OF IT,CMI400,SCHOOL OF SCIENCE & TECHNOLOGY,4
RESEARCH IN THE CLASSROOM,ERC221,SCHOOL OF EDUCATION AND COGNITIVE SCIENCE,4
ISSUES AND TRENDS IN TEACHING AND LEARNING,EIT223,SCHOOL OF EDUCATION AND COGNITIVE SCIENCE,3
PERMUAFAKATAN KELUARGA DAN SEKOLAH (HOME-SCHOOL PARTNERSHIP),ECE413,SCHOOL OF EDUCATION AND COGNITIVE SCIENCE,3
PROJECT PAPER,CPP404,SCHOOL OF SCIENCE & TECHNOLOGY,6
FOUNDATIONS IN EARLY CHILDHOOD EDUCATION,ECE121,SCHOOL OF EDUCATION AND COGNITIVE SCIENCE,3
INTRODUCTION TO LINUX,CPJ116,SCHOOL OF SCIENCE & TECHNOLOGY,2
ARTIFICIAL INTELLIGENCE,CPJ117,SCHOOL OF SCIENCE & TECHNOLOGY,2
ENTERPRISE RESOURCE PLANNING,CPJ118,SCHOOL OF SCIENCE & TECHNOLOGY,2
ADVANCED PROGRAMMING IN JAVA,CPJ119,SCHOOL OF SCIENCE & TECHNOLOGY,3
ENGLISH FOR BUSINESS,CPJ120,SCHOOL OF SCIENCE & TECHNOLOGY,2
ROUTING PROTOCOL,CPJ121,SCHOOL OF SCIENCE & TECHNOLOGY,2
COMPUTER PROFICIENCY,CPJ122,SCHOOL OF SCIENCE & TECHNOLOGY,1
INTERNET AND INTRANET MANAGEMENT AND SECURITY,CII400,SCHOOL OF SCIENCE & TECHNOLOGY,4
EVALUATION AND OBSERVATION OF CHILDREN,ECE411,SCHOOL OF EDUCATION AND COGNITIVE SCIENCE,3
REFLECTIVE PRACTICE,ERP212,SCHOOL OF EDUCATION AND COGNITIVE SCIENCE,4
MICRO TEACHING,EMT211,SCHOOL OF EDUCATION AND COGNITIVE SCIENCE,4
KURIKULUM PENDIDIKAN ISLAM (CURRICULUM OF ISLAMIC EDUCATION),SCC423,SCHOOL OF EDUCATION AND COGNITIVE SCIENCE,3
OBJECT ORIENTED PROGRAMMING,CCP313,SCHOOL OF SCIENCE & TECHNOLOGY,3
PENGAJIAN MALAYSIA 2,MPU2163,"SCHOOL OF ARTS, HUMANITIES & SOCIAL SCIENCES",3
INFORMATION LITERACY AND RESEARCH SKILLS 1,MPU2223,"SCHOOL OF ARTS, HUMANITIES & SOCIAL SCIENCES",3
ENTREPRENEURSHIP AND ETHICS IN MALAYSIA 1,MPU2313,"SCHOOL OF ARTS, HUMANITIES & SOCIAL SCIENCES",3
ASAS FIQH,SAF211,"SCHOOL OF ARTS, HUMANITIES & SOCIAL SCIENCES",3
SIRAH,SSI212,"SCHOOL OF ARTS, HUMANITIES & SOCIAL SCIENCES",3
OBJECT ORIENTED ANALYSIS AND DESIGN,COO400,SCHOOL OF SCIENCE & TECHNOLOGY,4
APPLICATION DEVELOPMENT AND SOFTWARE ENGINEERING,CAD401,SCHOOL OF SCIENCE & TECHNOLOGY,4
WEB DESIGN AND PROGRAMMING,CWD400,SCHOOL OF SCIENCE & TECHNOLOGY,4
SOFTWARE DESIGN AND DEVELOPMENT,CSD401,SCHOOL OF SCIENCE & TECHNOLOGY,4
MULTIMEDIA DESIGN AND SCRIPTING,CMD400,SCHOOL OF SCIENCE & TECHNOLOGY,4
INTRUSION DETECTION SYSTEM,CID400,SCHOOL OF SCIENCE & TECHNOLOGY,4
SECURED PROGRAMMING,CSP401,SCHOOL OF SCIENCE & TECHNOLOGY,4
WEB AND MULTIMEDIA APPLICATION DEVELOPMENT,CWM400,SCHOOL OF SCIENCE & TECHNOLOGY,4
OPERATING SYSTEM FOR MOBILE DEVICE,COS400,SCHOOL OF SCIENCE & TECHNOLOGY,4
JAWI,SJA227,"SCHOOL OF ARTS, HUMANITIES & SOCIAL SCIENCES",3
TEACHING METHODS IN ISLAMIC EDUCATION (KAEDAH PENGAJARAN PENDIDIKAN ISLAM),SMI411,"SCHOOL OF ARTS, HUMANITIES & SOCIAL SCIENCES",3
HAFAZAN AL-QURAN (MEMORIZATION OF QURAN),SHQ328,"SCHOOL OF ARTS, HUMANITIES & SOCIAL SCIENCES",3
SOFTWARE PROJECT MANAGEMENT AND PRACTICES,CSP400,SCHOOL OF SCIENCE & TECHNOLOGY,4
TEACHING OF THE AL-QURAN,ETQ422,"SCHOOL OF ARTS, HUMANITIES & SOCIAL SCIENCES",3
PRINCIPLES & DESIGN ANIMATION,CAN400,SCHOOL OF SCIENCE & TECHNOLOGY,3
SOCIAL STUDIES FOR YOUNG CHILDREN,ECE412,SCHOOL OF EDUCATION AND COGNITIVE SCIENCE,3
MOBILE DEVICE PROGRAMMING,CMD401,SCHOOL OF SCIENCE & TECHNOLOGY,4
MOBILE COMMERCE,CMC402,SCHOOL OF SCIENCE & TECHNOLOGY,4
ADVANCE VISUAL COMMUNICATION,CPJ123,SCHOOL OF SCIENCE & TECHNOLOGY,3
TRENDS IN ONLINE LEARNING,EPP222,SCHOOL OF EDUCATION AND COGNITIVE SCIENCE,4
PRACTICUM,EPM231,SCHOOL OF EDUCATION AND COGNITIVE SCIENCE,8
CHILDREN'S SOCIOEMOTIONAL DEVELOPMENT,ECE114,SCHOOL OF EDUCATION AND COGNITIVE SCIENCE,3
DIGITAL IMAGING,CDI200,SCHOOL OF SCIENCE & TECHNOLOGY,3
CHILDREN'S SOCIOEMOTIONAL DEVELOPMENT,ECE214,SCHOOL OF EDUCATION AND COGNITIVE SCIENCE,3
INTRODUCTION TO PROGRAMMING LOGIC AND TECHNIQUE,CPJ124,SCHOOL OF SCIENCE & TECHNOLOGY,2
FUNDAMENTALS OF DRAWING,CPJ125,SCHOOL OF SCIENCE & TECHNOLOGY,2
DRAMA AND POETRY IN ENGLISH,EDP413,SCHOOL OF EDUCATION AND COGNITIVE SCIENCE,3
SHORT STORIES AND NOVELS IN ENGLISH,ESN423,SCHOOL OF EDUCATION AND COGNITIVE SCIENCE,3
TEACHING DRAMA AND POETRY IN A SECOND LANGUAGE CONTEXT,ETD433,SCHOOL OF EDUCATION AND COGNITIVE SCIENCE,3
WESTERN ART HISTORY,CWA100,SCHOOL OF SCIENCE & TECHNOLOGY,3
PRACTICUM,STP441,"SCHOOL OF ARTS, HUMANITIES & SOCIAL SCIENCES",6
MULTIMEDIA SYSTEM,CMS400,SCHOOL OF SCIENCE & TECHNOLOGY,3
AUDIO TECHNOLOGY FOR MULTIMEDIA,CAT400,SCHOOL OF SCIENCE & TECHNOLOGY,3
VIDEO TECHNOLOGY FOR MULTIMEDIA,CVT400,SCHOOL OF SCIENCE & TECHNOLOGY,3
MULTIMEDIA WEB DEVELOPMENT,CMW400,SCHOOL OF SCIENCE & TECHNOLOGY,3
USER INTERFACE DESIGN,CUI100,SCHOOL OF SCIENCE & TECHNOLOGY,4
COMPUTER SYSTEMS AND BUSINESS PROCESS,CCS201,SCHOOL OF SCIENCE & TECHNOLOGY,4
USER INTERFACE DESIGN,CUI101,SCHOOL OF SCIENCE & TECHNOLOGY,3
COMPUTER SYSTEM AND BUSINESS PROCESS,CCS202,SCHOOL OF SCIENCE & TECHNOLOGY,3
PENGAJARAN AL-QURAN (SCIENCE OF QURAN),STQ422,"SCHOOL OF ARTS, HUMANITIES & SOCIAL SCIENCES",3
DESIGN LANGUAGE: UNIFIED MODELLING LANGUAGE (UML),CDL101,SCHOOL OF SCIENCE & TECHNOLOGY,3
ISSUES AND TRENDS IN EARLY CHILDHOOD EDUCATION,ECE432,SCHOOL OF EDUCATION AND COGNITIVE SCIENCE,3
APPLICATION PROGRAMMING,CAP100,SCHOOL OF SCIENCE & TECHNOLOGY,4
SOFTWARE PROJECT MANAGEMENT,CSP200,SCHOOL OF SCIENCE & TECHNOLOGY,4
VISUAL PROGRAMMING,CVP200,SCHOOL OF SCIENCE & TECHNOLOGY,3
DESIGN LANGUAGE: UNIFIED MODELLING LANGUAGE (UML),CDL100,SCHOOL OF SCIENCE & TECHNOLOGY,4
ORGANISATIONAL BEHAVIOUR,MOB601,SCHOOL OF MANAGEMENT,3
MANAGERIAL ECONOMICS,MEC605,SCHOOL OF MANAGEMENT,3
FINANCIAL MANAGEMENT,MFI606,SCHOOL OF MANAGEMENT,3
CURRICULUM DESIGN AND DEVELOPMENT,EPE642,SCHOOL OF EDUCATION AND COGNITIVE SCIENCE,3
LEARNING AND COGNITION,ELC612,SCHOOL OF EDUCATION AND COGNITIVE SCIENCE,3
EDUCATIONAL ASSESSMENT,EEA622,SCHOOL OF EDUCATION AND COGNITIVE SCIENCE,3
PHILOSOPHICAL IDEAS IN EDUCATION,EPE611,SCHOOL OF EDUCATION AND COGNITIVE SCIENCE,3
MARKETING MANAGEMENT,MKM607,SCHOOL OF MANAGEMENT,3
QUALITATIVE RESEARCH METHODS IN EDUCATION,EQL671,SCHOOL OF EDUCATION AND COGNITIVE SCIENCE,3
MODELS OF INSTRUCTION,EMI643,SCHOOL OF EDUCATION AND COGNITIVE SCIENCE,3
SOCIOLOGY OF EDUCATION,ESE621,SCHOOL OF EDUCATION AND COGNITIVE SCIENCE,3
STATISTICS IN EDUCATION,ESE633,SCHOOL OF EDUCATION AND COGNITIVE SCIENCE,3
RESEARCH METHOD IN EDUCATION,EPE641,SCHOOL OF EDUCATION AND COGNITIVE SCIENCE,3
FUNDAMENTALS OF INSTRUCTIONAL TECHNOLOGY,EIT632,SCHOOL OF EDUCATION AND COGNITIVE SCIENCE,3
SCHOOL CURRICULUM,ECS642,SCHOOL OF EDUCATION AND COGNITIVE SCIENCE,3
CURRICULUM OF THE FUTURE,ECF643,SCHOOL OF EDUCATION AND COGNITIVE SCIENCE,3
RESEARCH IN CURRICULUM AND INSTRUCTION,ECR651,SCHOOL OF EDUCATION AND COGNITIVE SCIENCE,3
PROJECT PAPER IN CURRICULUM AND INSTRUCTION,EPC652,SCHOOL OF EDUCATION AND COGNITIVE SCIENCE,3
"BRAIN, COGNITIVE AND EDUCATION",EBC642,SCHOOL OF EDUCATION AND COGNITIVE SCIENCE,3
LIFESPAN DEVELOPMENT,ELD643,SCHOOL OF EDUCATION AND COGNITIVE SCIENCE,3
RESEARCH IN EDUCATIONAL PSYCHOLOGY,EPR651,SCHOOL OF EDUCATION AND COGNITIVE SCIENCE,3
PROJECT PAPER IN EDUCATIONAL PSYCHOLOGY,EPP652,SCHOOL OF EDUCATION AND COGNITIVE SCIENCE,3
WEB-BASED LEARNING,EWB642,SCHOOL OF EDUCATION AND COGNITIVE SCIENCE,3
PRINCIPLES OF INSTRUCTIONAL DESIGN,EID643,SCHOOL OF EDUCATION AND COGNITIVE SCIENCE,3
RESEARCH IN INSTRUCTIONAL TECHNOLOGY,ETR651,SCHOOL OF EDUCATION AND COGNITIVE SCIENCE,3
PROJECT PAPER IN INSTRUCTIONAL TECHNOLOGY,EPT652,SCHOOL OF EDUCATION AND COGNITIVE SCIENCE,3
ISLAMIC BANKING AND FINANCE,MFS608,SCHOOL OF MANAGEMENT,3
SUPPLY CHAIN MANAGEMENT,MMS615,SCHOOL OF MANAGEMENT,3
MANAGERIAL ACCOUNTING,MAM603,SCHOOL OF MANAGEMENT,3
NATURE OF STUDENT LEARNING,ENL611,SCHOOL OF EDUCATION AND COGNITIVE SCIENCE,3
ASSESSMENT AND EVALUATION IN HIGHER EDUCATION,EAH612,SCHOOL OF EDUCATION AND COGNITIVE SCIENCE,3
INSTRUCTIONAL METHODS AND STRATEGIES IN HIGHER EDUCATION,EIM622,SCHOOL OF EDUCATION AND COGNITIVE SCIENCE,3
ELEMENTS OF OPEN STANDARDS **,CES602,SCHOOL OF SCIENCE & TECHNOLOGY,3
FUNDAMENTAL OF OPEN SOURCE SOFTWARE,CFO601,SCHOOL OF SCIENCE & TECHNOLOGY,3
OPEN SOURCE PROGRAMMING LANGUAGES **,CPL603,SCHOOL OF SCIENCE & TECHNOLOGY,3
OPEN SOURCE LICENSING AND LEGAL ISSUES,CLL604,SCHOOL OF SCIENCE & TECHNOLOGY,3
WEB ECONOMY,CWE300,SCHOOL OF SCIENCE & TECHNOLOGY,3
ERP APPLICATION SETUP,CAS602,SCHOOL OF SCIENCE & TECHNOLOGY,3
ERP PRE-SALES AND PROJECT PROPOSAL,CPS603,SCHOOL OF SCIENCE & TECHNOLOGY,3
ERP SOFTWARE ENGINEERING,CSE604,SCHOOL OF SCIENCE & TECHNOLOGY,3
ORGANISATIONAL LEADERSHIP,MOL654,SCHOOL OF MANAGEMENT,3
ADVANCED ECONOMIC ANALYSIS,MAE655,SCHOOL OF MANAGEMENT,3
ADVANCED ACCOUNTING AND FINANCE,MAF656,SCHOOL OF MANAGEMENT,3
BUSINESS STRATEGY AND POLICY,MBP660,SCHOOL OF MANAGEMENT,3
NEW BUSINESS VENTURE,MNV661,SCHOOL OF MANAGEMENT,3
STRATEGIC MARKETING,MSM657,SCHOOL OF MANAGEMENT,3
ADVANCED STATISTICS,MAS658,SCHOOL OF MANAGEMENT,3
INTERNATIONAL BUSINESS,MIB659,SCHOOL OF MANAGEMENT,3
RESEARCH METHODOLOGY 1,MRM662,SCHOOL OF MANAGEMENT,3
RESEARCH METHODOLOGY 2,MRM663,SCHOOL OF MANAGEMENT,3
MANAGEMENT AND ORGANISATION,MMO602,SCHOOL OF MANAGEMENT,3
HUMAN RESOURCE MANAGEMENT,MHS611,SCHOOL OF MANAGEMENT,3
MANAGEMENT OF INFORMATION SYSTEM,MMI601,SCHOOL OF MANAGEMENT,3
OPERATION MANAGEMENT,MOM604,SCHOOL OF MANAGEMENT,3
QUANTITATIVE METHODS AND DECISION ANALYSIS,MQM602,SCHOOL OF MANAGEMENT,3
LAW AND ETHICS,MLE603,SCHOOL OF MANAGEMENT,3
RESEARCH METHODOLOGY,UCS601,SCHOOL OF MANAGEMENT,3
PROJECT MANAGEMENT,MMP614,SCHOOL OF MANAGEMENT,3
STRATEGIC MANAGEMENT,MSM620,SCHOOL OF MANAGEMENT,3
CORPORATE COMMUNICATION,MCC604,"SCHOOL OF ARTS, HUMANITIES & SOCIAL SCIENCES",3
SAFETY AND HEALTH MANAGEMENT,MSH605,SCHOOL OF MANAGEMENT,3
QUALITY AND CHANGE MANAGEMENT,MQM613,SCHOOL OF MANAGEMENT,3
INTERNATIONAL BUSINESS,MIB610,SCHOOL OF MANAGEMENT,3
SMALL BUSINESS MANAGEMENT,MMB617,SCHOOL OF MANAGEMENT,3
PUBLIC ORGANISATION AND MANAGEMENT,MPM660,SCHOOL OF MANAGEMENT,3
STATE AND LOCAL GOVERNMENT ADMINISTRATION,MGA661,SCHOOL OF MANAGEMENT,3
"PUBLIC POLICY (EDUCATION, HEALTH, WELFARE & ENVIRONMENT)",MPP662,SCHOOL OF MANAGEMENT,3
PUBLIC FINANCE (PUBLIC BUDGETING),MPF663,SCHOOL OF MANAGEMENT,3
MANAGERIAL ECONOMICS FOR PUBLIC SECTOR MANAGERS,MME664,SCHOOL OF MANAGEMENT,3
PUBLIC SECTOR ACCOUNTING,MPA665,SCHOOL OF MANAGEMENT,3
DIPLOMACY AND FOREIGN RELATIONS,MDF666,SCHOOL OF MANAGEMENT,3
SUSTAINABLE DEVELOPMENT,MSD667,SCHOOL OF MANAGEMENT,3
INFORMATION TECHNOLOGY FOR PUBLIC SECTOR MANAGERS,MIP670,SCHOOL OF MANAGEMENT,3
LAW AND GOVERNANCE,MLG669,SCHOOL OF MANAGEMENT,3
STRATEGIC HUMAN RESOURCE PLANNING,MSP670,SCHOOL OF MANAGEMENT,3
PERFORMANCE MANAGEMENT,MPM671,SCHOOL OF MANAGEMENT,3
COMPENSATION MANAGEMENT,MCM672,SCHOOL OF MANAGEMENT,3
INDUSTRIAL RELATIONS PRACTICES,MIP673,SCHOOL OF MANAGEMENT,3
ORGANISATIONAL DESIGN AND STRUCTURE,MOD674,SCHOOL OF MANAGEMENT,3
HUMAN RESOURCE DEVELOPMENT,MHD675,SCHOOL OF MANAGEMENT,3
HUMAN RESOURCE COSTING,MHC676,SCHOOL OF MANAGEMENT,3
OCCUPATIONAL SAFETY AND HEALTH MANAGEMENT SYSTEMS,MOS677,SCHOOL OF MANAGEMENT,3
SECURITY MANAGEMENT,MSM678,SCHOOL OF MANAGEMENT,3
INTERNATIONAL HUMAN RESOURCE MANAGEMENT,MIH679,SCHOOL OF MANAGEMENT,3
ISLAMIC ECONOMICS,MIE680,SCHOOL OF MANAGEMENT,3
FIQH MUAMALAT,MFM621,SCHOOL OF MANAGEMENT,3
ISLAMIC FINANCIAL MANAGEMENT,MIF681,SCHOOL OF MANAGEMENT,3
ISLAMIC BANKING PRODUCTS AND SERVICES,MBS622,SCHOOL OF MANAGEMENT,3
ISLAMIC FINANCIAL REGULATIONS AND LAW,MRL623,SCHOOL OF MANAGEMENT,3
TAKAFUL MANAGEMENT,MTM682,SCHOOL OF MANAGEMENT,3
ISLAMIC TAXATION,MIT683,SCHOOL OF MANAGEMENT,3
ACCOUNTING FOR ISLAMIC FINANCIAL INSTITUTIONS,MAI684,SCHOOL OF MANAGEMENT,3
FINANCIAL REPORTING AND ANALYSIS,MFA685,SCHOOL OF MANAGEMENT,3
ISLAMIC CAPITAL MARKETS AND INSTRUMENTS,MCI624,SCHOOL OF MANAGEMENT,3
INTRODUCTION TO BUSINESS PROCESS MANAGEMENT,CBM601,SCHOOL OF SCIENCE & TECHNOLOGY,3
BUSINESS PROCESS DIAGRAMS,CBP602,SCHOOL OF SCIENCE & TECHNOLOGY,3
CONDUCTING ANALYSIS,CCA603,SCHOOL OF SCIENCE & TECHNOLOGY,3
REFINING THE BUSINESS PROCESS MODEL,CPM604,SCHOOL OF SCIENCE & TECHNOLOGY,3
BUSINESS PROCESS MODELING PROJECT,CPP605,SCHOOL OF SCIENCE & TECHNOLOGY,3
INTRODUCTION TO DATA,CID606,SCHOOL OF SCIENCE & TECHNOLOGY,3
DATA DIAGRAMS AND RELATIONSHIPS,CDR607,SCHOOL OF SCIENCE & TECHNOLOGY,3
BUILDING THE DATA MODEL,CBD608,SCHOOL OF SCIENCE & TECHNOLOGY,3
DATA MODELLING PROJECT,CMP609,SCHOOL OF SCIENCE & TECHNOLOGY,3
CASE STUDY PROJECT,CCP610,SCHOOL OF SCIENCE & TECHNOLOGY,3
PROJECT PAPER,MPP799,SCHOOL OF MANAGEMENT,6
RESEARCH THESIS,MDT799,SCHOOL OF MANAGEMENT,4
MANAGING CREATIVITY AND INNOVATION,MMC616,SCHOOL OF MANAGEMENT,3
FOUNDATION OF KNOWLEDGE MANAGEMENT,MKF639,"SCHOOL OF ARTS, HUMANITIES & SOCIAL SCIENCES",3
HUMAN CAPITAL,MHC643,"SCHOOL OF ARTS, HUMANITIES & SOCIAL SCIENCES",3
ICT MANAGEMENT,CIM600,SCHOOL OF SCIENCE & TECHNOLOGY,3
INFORMATION SECURITY MANAGEMENT,CSM660,SCHOOL OF SCIENCE & TECHNOLOGY,3
ENTERPRISE RESOURCE PLANNING,CER610,SCHOOL OF SCIENCE & TECHNOLOGY,3
"SYSTEM ANALYSIS, DESIGN AND DEVELOPMENT",CAD630,SCHOOL OF SCIENCE & TECHNOLOGY,3
NETWORK MANAGEMENT,CNM640,SCHOOL OF SCIENCE & TECHNOLOGY,3
ICT PROJECT MANAGEMENT,CPM650,SCHOOL OF SCIENCE & TECHNOLOGY,3
KNOWLEDGE MANAGEMENT TECHNOLOGY,MKT641,"SCHOOL OF ARTS, HUMANITIES & SOCIAL SCIENCES",3
KNOWLEDGE BASED SYSTEMS,MKB644,"SCHOOL OF ARTS, HUMANITIES & SOCIAL SCIENCES",3
ORGANISATIONAL LEARNING,MOL645,"SCHOOL OF ARTS, HUMANITIES & SOCIAL SCIENCES",3
LEADERSHIP AND ORGANISATIONAL CHANGE,MLO671,SCHOOL OF MANAGEMENT,3
HUMAN RESOURCE TRAINING AND DEVELOPMENT,MTD672,SCHOOL OF MANAGEMENT,3
ERP PROJECT IMPLEMENTATION,CPI605,SCHOOL OF SCIENCE & TECHNOLOGY,3
ERP PROJECT APPRENTICESHIP,CPA606,SCHOOL OF SCIENCE & TECHNOLOGY,3
ERP PROJECT MANAGEMENT,CPM607,SCHOOL OF SCIENCE & TECHNOLOGY,3
ERP ACCOUNTING,CEA608,SCHOOL OF SCIENCE & TECHNOLOGY,3
ERP REPORTING,CER609,SCHOOL OF SCIENCE & TECHNOLOGY,3
ERP ENTREPRENEUSHIP,CEE610,SCHOOL OF SCIENCE & TECHNOLOGY,3
SECURITY MANAGEMENT,CSM605,SCHOOL OF SCIENCE & TECHNOLOGY,3
CONTENT MANAGEMENT SYSTEM,CCM606,SCHOOL OF SCIENCE & TECHNOLOGY,3
WEB PROGRAMMING,CWP607,SCHOOL OF SCIENCE & TECHNOLOGY,3
LINUX SYSTEM & NETWORK ADMINISTRATION,CLA608,SCHOOL OF SCIENCE & TECHNOLOGY,3
ISSUES IN OSS LOCALISATION PROJECT **,CIL609,SCHOOL OF SCIENCE & TECHNOLOGY,3
ISSUES AND TRENDS IN NURSING EDUCATION,EPN643,SCHOOL OF EDUCATION AND COGNITIVE SCIENCE,3
APPLIED LINGUISTICS IN TEACHING ENGLISH AS A SECOND LANGUAGE,EAL642,SCHOOL OF EDUCATION AND COGNITIVE SCIENCE,3
INTERNATIONAL MARKETING,MIM625,SCHOOL OF MANAGEMENT,3
PERFORMANCE MANAGEMENT,MFM630,SCHOOL OF MANAGEMENT,3
ENTREPRENEURSHIP AND INNOVATION,MEI635,SCHOOL OF MANAGEMENT,3
PURCHASING AND PROCUREMENT MANAGEMENT,MPP636,SCHOOL OF MANAGEMENT,3
TOURISM AND HOSPITALITY MARKETING,MTH651,SCHOOL OF MANAGEMENT,3
TAKAFUL PRODUCTS,MTP655,SCHOOL OF MANAGEMENT,3
ISSUES AND METHODS IN TEACHING ENGLISH AS A SECOND LANGUAGE,EAM643,SCHOOL OF EDUCATION AND COGNITIVE SCIENCE,3
CYBER LAWS,CCL610,SCHOOL OF SCIENCE & TECHNOLOGY,3
ICT GOVERNANCE,CIG680,SCHOOL OF SCIENCE & TECHNOLOGY,3
ICT ENTREPRENEURSHIP,CEI680,SCHOOL OF SCIENCE & TECHNOLOGY,3
VOID,VOID(ECH613),SCHOOL OF EDUCATION AND COGNITIVE SCIENCE,3
CLINICAL TEACHING IN NURSING,ECI642,SCHOOL OF EDUCATION AND COGNITIVE SCIENCE,3
RESEARCH IN NURSING EDUCATION,ERN651,SCHOOL OF EDUCATION AND COGNITIVE SCIENCE,3
PROJECT PAPER IN NURSING EDUCATION,EPN652,SCHOOL OF EDUCATION AND COGNITIVE SCIENCE,3
RESEARCH IN TEACHING ENGLISH AS A SECOND LANGUAGE,ERE651,SCHOOL OF EDUCATION AND COGNITIVE SCIENCE,3
PROJECT PAPER IN TEACHING ENGLISH AS SECOND LANGUAGE,EPE652,SCHOOL OF EDUCATION AND COGNITIVE SCIENCE,3
KNOWLEDGE MANAGEMENT STRATEGY AND POLICY,MSP646,"SCHOOL OF ARTS, HUMANITIES & SOCIAL SCIENCES",3
KNOWLEDGE ASSETS ASSESSMENT AND AUDIT,CKA616,SCHOOL OF MANAGEMENT,3
DOCTORAL THESIS,CDT799,SCHOOL OF GRADUATE STUDIES,4
DOCTORAL THESIS,EDT799,SCHOOL OF GRADUATE STUDIES,4
MASTER THESIS,MMT699,SCHOOL OF GRADUATE STUDIES,4
RESEARCH METHODOLOGY*,UCS601*,GENERAL,0
QUANTITATIVE ANALYSIS,UCS602,GENERAL,0
QUALITATIVE ANALYSIS,UCS603,GENERAL,0
TRENDS IN THE TEACHING AND LEARNING OF SCIENCE,ESC642,SCHOOL OF EDUCATION AND COGNITIVE SCIENCE,3
"SCIENCE, TECHNOLOGY AND SOCIETY EDUCATION",ESC643,SCHOOL OF EDUCATION AND COGNITIVE SCIENCE,3
RESEARCH IN SCIENCE EDUCATION,ESC651,SCHOOL OF EDUCATION AND COGNITIVE SCIENCE,3
PROJECT PAPER IN SCIENCE EDUCATION,ESC652,SCHOOL OF EDUCATION AND COGNITIVE SCIENCE,3
CONCEPTS AND THEORIES IN EDUCATIONAL MANAGEMENT,EMA642,SCHOOL OF EDUCATION AND COGNITIVE SCIENCE,3
EMERGING PERSPECTIVES IN EDUCATIONAL LEADERSHIP,EMA643,SCHOOL OF EDUCATION AND COGNITIVE SCIENCE,3
RESEARCH IN EDUCATIONAL MANAGEMENT,EMA651,SCHOOL OF EDUCATION AND COGNITIVE SCIENCE,3
PROJECT PAPER IN EDUCATIONAL MANAGEMENT,EMA652,SCHOOL OF EDUCATION AND COGNITIVE SCIENCE,3
TESTING AND MEASUREMENT,EME642,SCHOOL OF EDUCATION AND COGNITIVE SCIENCE,3
PROGRAMME EVALUATION IN EDUCATION,EME643,SCHOOL OF EDUCATION AND COGNITIVE SCIENCE,3
RESEARCH IN EDUCATIONAL ASSESSMENT & EVALUATION,EME651,SCHOOL OF EDUCATION AND COGNITIVE SCIENCE,3
PROJECT PAPER IN EDUCATIONAL ASSESSMENT AND EVALUATION,EME652,SCHOOL OF EDUCATION AND COGNITIVE SCIENCE,3
COUNSELLING IN HIGHER EDUCATION,ECH613,SCHOOL OF EDUCATION AND COGNITIVE SCIENCE,3
ACADEMIC LEADERSHIP & RESEARCH SUPERVISION,EAL632,SCHOOL OF EDUCATION AND COGNITIVE SCIENCE,3
RESEARCH IN HIGHER EDUCATION TEACHING,EHT651,SCHOOL OF EDUCATION AND COGNITIVE SCIENCE,3
PROJECT PAPER IN HIGHER EDUCATION TEACHING,EHT652,SCHOOL OF EDUCATION AND COGNITIVE SCIENCE,3
CURRICULUM & INSTRUCTION IN THE EARLY YEARS,ECI613,SCHOOL OF EDUCATION AND COGNITIVE SCIENCE,3
INTRODUCTION TO EARLY CHILDHOOD EDUCATION,ECH632,SCHOOL OF EDUCATION AND COGNITIVE SCIENCE,3
RESEARCH IN EARLY CHILDHOOD EDUCATION,ECH651,SCHOOL OF EDUCATION AND COGNITIVE SCIENCE,3
PROJECT PAPER IN EARLY CHILDHOOD EDUCATION,ECH652,SCHOOL OF EDUCATION AND COGNITIVE SCIENCE,3
ISLAMIC FINANCIAL SYSTEM,MFS612,SCHOOL OF MANAGEMENT,3
SECURITY INVESTMENT AND PORTFOLIO MANAGEMENT,MFI618,SCHOOL OF MANAGEMENT,3
CORPORATE GOVERNANCE AND BEST PRACTICES,MCB629,SCHOOL OF MANAGEMENT,3
INTERNATIONAL LOGISTICS AND TRANSPORT,MLT628,SCHOOL OF MANAGEMENT,3
MULTINATIONAL CORPORATION,MNC626,SCHOOL OF MANAGEMENT,3
INTERNATIONAL FINANCE,MIF627,SCHOOL OF MANAGEMENT,3
NEW BUSINESS PLANNING,MBP633,SCHOOL OF MANAGEMENT,3
NEW BUSINESS PLANNING AND MARKET RESEARCH AND DEVELOPMENT,MMD634,SCHOOL OF MANAGEMENT,3
SUPPLY CHAIN STRATEGY,MSS637,SCHOOL OF MANAGEMENT,3
RISK MANAGEMENT IN SUPPLY CHAIN,MRS638,SCHOOL OF MANAGEMENT,3
HOSPITALITY MANAGEMENT,MHM652,SCHOOL OF MANAGEMENT,3
EVENT MANAGEMENT,MEM653,SCHOOL OF MANAGEMENT,3
TAKAFUL OPERATIONS AND MANAGEMENT,MTO656,SCHOOL OF MANAGEMENT,3
TECHNICAL AND ACCOUNTING ASPECTS OF TAKAFUL,MTA657,SCHOOL OF MANAGEMENT,3
"ENVIRONMENTAL, OCCUPATIONAL SAFETY AND HEALTH RISK MANAGEMENT",MRM631,SCHOOL OF MANAGEMENT,3
RESEARCH METHODOLOGY,BPRM7103,SCHOOL OF GRADUATE STUDIES,0
DOCTORAL SEMINAR,BPMG7103,SCHOOL OF GRADUATE STUDIES,0
APPLIED STATISTICS,GPAS7103,SCHOOL OF GRADUATE STUDIES,0
PROPOSAL WRITING,-,SCHOOL OF GRADUATE STUDIES,0
TEACHING LITERATURE IN ENGLISH AS A SECOND LANGUAGE,ETL642,SCHOOL OF EDUCATION AND COGNITIVE SCIENCE,3
"COURSE, CURRICULUM AND PROGRAMME DESIGN",ECD621,SCHOOL OF EDUCATION AND COGNITIVE SCIENCE,3
KNOWLEDGE MANAGEMENT SYSTEMS IMPLEMENTATION,CKS615,SCHOOL OF MANAGEMENT,3
ISLAMIC CAPITAL AND MONEY MARKETS,MCI682,SCHOOL OF MANAGEMENT,3
LEADERSHIP IN FUTURE,MLF666,SCHOOL OF MANAGEMENT,3
MANAGER OF THE FUTURE,MTF667,SCHOOL OF MANAGEMENT,3
SHARI'AH FUNDAMENTALS FOR TAKAFUL MANAGERS,MSF658,SCHOOL OF MANAGEMENT,3
E-LEARNING IN HIGHER EDUCATION,EEL631,SCHOOL OF EDUCATION AND COGNITIVE SCIENCE,3
VENTURE CAPITAL AND FINANCING,MVF632,SCHOOL OF MANAGEMENT,3
ICT STRATEGIC PLANNING,CSP670,SCHOOL OF SCIENCE & TECHNOLOGY,3
RESEARCH METHODOLOGY FOR IT,CRM690,SCHOOL OF SCIENCE & TECHNOLOGY,3
RESEARCH METHODS IN EDUCATION,ESM641,SCHOOL OF EDUCATION AND COGNITIVE SCIENCE,3
CORPORATE SOCIAL RESPONSIBILITY,MCS651,SCHOOL OF MANAGEMENT,3
"PROJECT PLANNING, SCHEDULING & CONTROL",CPS605,SCHOOL OF SCIENCE & TECHNOLOGY,3
CRYPTOGRAPHY,CSC610,SCHOOL OF SCIENCE & TECHNOLOGY,3
KNOWLEDGE REPOSITORIES,MKR642,"SCHOOL OF ARTS, HUMANITIES & SOCIAL SCIENCES",3
ENTERPRISE RISK MANAGEMENT,MER631,SCHOOL OF MANAGEMENT,3
RECRUITMENT AND SELECTION,MRS674,SCHOOL OF MANAGEMENT,3
LEGAL AND ETHICS IN KNOWLEDGE MANAGEMENT,MLE647,SCHOOL OF MANAGEMENT,3
DECISION SUPPORT SYSTEM,MDS649,"SCHOOL OF ARTS, HUMANITIES & SOCIAL SCIENCES",3
KNOWLEDGE DISCOVERY AND DATA MINING,MDD650,"SCHOOL OF ARTS, HUMANITIES & SOCIAL SCIENCES",3
INTELLECTUAL PROPERTY AND COMMERCIALISATION,CIP601,SCHOOL OF MANAGEMENT,3
KNOWLEDGE-BASED ORGANISATION DESIGN AND STRUCTURE,MKO653,SCHOOL OF MANAGEMENT,3
MICRO-TEACHING,EMT641,SCHOOL OF EDUCATION AND COGNITIVE SCIENCE,3
PRACTICUM 1,ETP642,SCHOOL OF EDUCATION AND COGNITIVE SCIENCE,3
PRACTICUM 2,ETP643,SCHOOL OF EDUCATION AND COGNITIVE SCIENCE,3
STRATEGIC AND ORGANIZATIONAL PLANNING FOR PROJECT MANAGEMENT,CSP606,SCHOOL OF SCIENCE & TECHNOLOGY,3
MANAGING PROJECT QUALITY AND RISKS,CQR607,SCHOOL OF SCIENCE & TECHNOLOGY,3
LEADERSHIP AND COMMUNICATION IN PROJECT MANAGEMENT,CLC608,SCHOOL OF SCIENCE & TECHNOLOGY,3
"TELECOMMUNICATIONS, NETWORK AND INTERNET SECURITY",CTS609,SCHOOL OF SCIENCE & TECHNOLOGY,3
APPLICATION DEVELOPMENT SECURITY,CAS611,SCHOOL OF SCIENCE & TECHNOLOGY,3
OPERATIONS AND PHYSICAL SECURITY,COP612,SCHOOL OF SCIENCE & TECHNOLOGY,3
RESEARCH DISSERTATION,BDT799,SCHOOL OF GRADUATE STUDIES,4
PROJECT PAPER,CPP698,SCHOOL OF SCIENCE & TECHNOLOGY,6
ORGANISATIONAL BEHAVIOUR,MBA1013,SCHOOL OF MANAGEMENT,3
MARKETING MANAGEMENT,MBA2023,SCHOOL OF MANAGEMENT,3
MANAGERIAL ACCOUNTING,MBA1025,SCHOOL OF MANAGEMENT,3
"CULTURAL TOURISM: ARTS, HERITAGE, LEISURE AND ENTERTAINMENT",MCT654,SCHOOL OF MANAGEMENT,3
HUMAN RESOURCE MANAGEMENT,MBA2053,SCHOOL OF MANAGEMENT,3
MANAGERIAL ECONOMICS,MBA1053,SCHOOL OF MANAGEMENT,3
QUANTITATIVE METHODS AND DECISION ANALYSIS,MBA1023,SCHOOL OF MANAGEMENT,3
SUPPLY CHAIN MANAGEMENT,MBA3033,SCHOOL OF MANAGEMENT,3
FINANCIAL MANAGEMENT,MBA2013,SCHOOL OF MANAGEMENT,3
PROJECT MANAGEMENT,MBA3023,SCHOOL OF MANAGEMENT,3
QUALITY AND CHANGE MANAGEMENT,MBA3013,SCHOOL OF MANAGEMENT,3
INTERNATIONAL BUSINESS,MBA2043,SCHOOL OF MANAGEMENT,3
SMALL BUSINESS MANAGEMENT,MBA3053,SCHOOL OF MANAGEMENT,3
STRATEGIC MANAGEMENT,MBA3073,SCHOOL OF MANAGEMENT,3
MANAGING CREATIVITY AND INNOVATION,MBA3043,SCHOOL OF MANAGEMENT,3
LEADERSHIP IN SECURITY MANAGEMENT,MLS651,SCHOOL OF MANAGEMENT,3
THE SECURITY CHALLENGE AND SECURITY DESIGN,MSD652,SCHOOL OF MANAGEMENT,3
SECURITY SURVEY AND INVESTIGATION,MSI653,SCHOOL OF MANAGEMENT,3
SECURITY RISK ASSESSMENT AND CONTROL,MAC654,SCHOOL OF MANAGEMENT,3
"STRATEGIC HUMAN RESOURCE PLANNING, RECRUITMENT AND SELECTION",MSR670,SCHOOL OF MANAGEMENT,3
DISSERTATION,GDT799,SCHOOL OF GRADUATE STUDIES,4
THESIS,ADT799,SCHOOL OF GRADUATE STUDIES,4
ACCOUNTING AND FINANCE FOR MANAGERS,MAF666,SCHOOL OF MANAGEMENT,4
BUSINESS INFORMATICS,MBI667,SCHOOL OF MANAGEMENT,3
MANAGING PEOPLE IN ORGANISATIONS,MPO669,SCHOOL OF MANAGEMENT,4
QUALITY ASSURANCE AND CONTROL,MQM6033,SCHOOL OF MANAGEMENT,3
BUSINESS STATISTICS,MBS668,SCHOOL OF MANAGEMENT,3
STRATEGIC MANAGEMENT-ASIAN BUSINESS,MSM670,SCHOOL OF MANAGEMENT,4
TOTAL QUALITY MANAGEMENT,MQM6023,SCHOOL OF MANAGEMENT,3
MASTER THESIS,AMT699,SCHOOL OF GRADUATE STUDIES,4
RISK ANALYSIS AND MANAGEMENT,MRA630,SCHOOL OF MANAGEMENT,3
ENTREPRENEURIAL FINANCE,MEF635,SCHOOL OF MANAGEMENT,3
INDUSTRIAL PSYCHOLOGY,MIP680,SCHOOL OF MANAGEMENT,3
HUMAN RESOURCE INFORMATION SYSTEM,MHI679,SCHOOL OF MANAGEMENT,3
ISLAMIC FINANCIAL INSTITUTIONS MARKETING,MIF622,SCHOOL OF MANAGEMENT,3
FOUNDATION OF KNOWLEDGE MANAGEMENT,CFK680,SCHOOL OF SCIENCE & TECHNOLOGY,3
KNOWLEDGE ASSETS ASSESSMENTS AND AUDIT,CKA680,SCHOOL OF SCIENCE & TECHNOLOGY,3
KNOWLEDGE MANAGEMENT IN ORGANISATION,CKO680,SCHOOL OF SCIENCE & TECHNOLOGY,3
KNOWLEDGE MANAGEMENT SYSTEMS IMPLEMENTATIONS,CKS680,SCHOOL OF SCIENCE & TECHNOLOGY,3
INTELLECTUAL PROPERTY AND COMMERCIALIZATION,CIP680,SCHOOL OF SCIENCE & TECHNOLOGY,3
MANAGING TECHNOLOGY IN ENTREPRENEURSHIP,CMT680,SCHOOL OF SCIENCE & TECHNOLOGY,3
TECHNOLOGY INNOVATION MANAGEMENT,CTI680,SCHOOL OF SCIENCE & TECHNOLOGY,3
ENTREPRENEURSHIP BUSINESS PLAN DEVELOPMENT,CBP680,SCHOOL OF SCIENCE & TECHNOLOGY,3
FUNDAMENTAL OF BUSINESS CONTINUITY MANAGEMENT,CFB680,SCHOOL OF SCIENCE & TECHNOLOGY,3
RECOVERY STRATEGY AND PLAN DEVELOPMENT,CRS680,SCHOOL OF SCIENCE & TECHNOLOGY,3
RISK ASSESSMENT MANAGEMENT,CRA680,SCHOOL OF SCIENCE & TECHNOLOGY,3
BUSINESS CONTINUITY PLAN MANAGEMENT,CBC680,SCHOOL OF SCIENCE & TECHNOLOGY,3
INFORMATION TECHNOLOGY FOR MANAGERS,BMIT5103,SCHOOL OF MANAGEMENT,3
ORGANIZATIONAL BEHAVIOUR,BMOB5103,SCHOOL OF MANAGEMENT,3
ORGANIZATION & BUSINESS MGT,BMOM5203,SCHOOL OF MANAGEMENT,3
ENTREPRENUERSHIP,BMET5103,SCHOOL OF MANAGEMENT,3
MARKETING MGT,BMMK5103,SCHOOL OF MANAGEMENT,3
STRATEGIC MGT,BMST5103,SCHOOL OF MANAGEMENT,3
MANAGERIAL ECONOMIC,BMME5103,SCHOOL OF MANAGEMENT,3
PROJECT PAPER,CPP690,SCHOOL OF SCIENCE & TECHNOLOGY,6
DOCTORAL THESIS,GDT801,SCHOOL OF GRADUATE STUDIES,4
DOCTORAL DISSERTATION,GDD802,SCHOOL OF GRADUATE STUDIES,0
RESEARCH METHODOLOGY,GRM803,SCHOOL OF GRADUATE STUDIES,0
QUANTITATIVE ANALYSIS,GQT804,SCHOOL OF GRADUATE STUDIES,0
QUALITATIVE ANALYSIS,GQL805,SCHOOL OF GRADUATE STUDIES,0
ADVANCED STATISTICS,MAS858,SCHOOL OF MANAGEMENT,3
INTERNATIONAL BUSINESS,MIB859,SCHOOL OF MANAGEMENT,3
RESEARCH METHODOLOGY 1,MRM862,SCHOOL OF MANAGEMENT,3
ADVANCED ECONOMIC ANALYSIS,MAE855,SCHOOL OF MANAGEMENT,3
ADVANCED ACCOUNTING AND FINANCE,MAF856,SCHOOL OF MANAGEMENT,3
BUSINESS STRATEGY AND POLICY,MBP860,SCHOOL OF MANAGEMENT,3
NEW BUSINESS VENTURE,MNV861,SCHOOL OF MANAGEMENT,3
ORGANISATIONAL LEADERSHIP,MOL854,SCHOOL OF MANAGEMENT,3
RESEARCH METHODOLOGY 2,MRM863,SCHOOL OF MANAGEMENT,3
STRATEGIC MARKETING,MSM857,SCHOOL OF MANAGEMENT,3
ACCOUNTING AND FINANCE FOR MANAGERS,MAF605,SCHOOL OF MANAGEMENT,4
MANAGERIAL ACCOUNTING,MAM609,SCHOOL OF MANAGEMENT,3
BUSINESS INFORMATICS,MBI701,SCHOOL OF MANAGEMENT,3
BUSINESS STATISTICS,MBS702,SCHOOL OF MANAGEMENT,3
CORPORATE GOVERNANCE AND BEST PRACTICES,MCG731,SCHOOL OF MANAGEMENT,3
CORPORATE COMMUNICATION,MCC711,SCHOOL OF MANAGEMENT,3
"CONVENTIONAL AND ISLAMIC FINANCIAL MARKETS, INSTRUMENTS AND INSTITUTION",MCI745,SCHOOL OF MANAGEMENT,3
COMPENSATION MANAGEMENT,MCM634,SCHOOL OF MANAGEMENT,3
CORPORATE SOCIAL RESPONSIBILITY,MCS714,SCHOOL OF MANAGEMENT,3
"CULTURAL TOURISM: ARTS, HERITAGE, LEISURE AND ENTERTAINMENT",MCT754,SCHOOL OF MANAGEMENT,3
MANAGERIAL ECONOMICS,MEC604,SCHOOL OF MANAGEMENT,3
ENTREPRENEURIAL FINANCE,MEF728,SCHOOL OF MANAGEMENT,3
ENTREPRENEURSHIP AND INNOVATION,MEI730,SCHOOL OF MANAGEMENT,3
EVENT MANAGEMENT,MEM753,SCHOOL OF MANAGEMENT,3
ENTERPRISE RISK MANAGEMENT,MER732,SCHOOL OF MANAGEMENT,3
FINANCIAL MANAGEMENT,MFM610,SCHOOL OF MANAGEMENT,3
SHARI'AH ASPECTS OF BUSINESS AND FINANCE (FIQH MUAMALAT),MFM742,SCHOOL OF MANAGEMENT,3
ISLAMIC BANKING AND FINANCE,MIF703,SCHOOL OF MANAGEMENT,3
HUMAN RESOURCE COSTING,MHC761,SCHOOL OF MANAGEMENT,3
HUMAN RESOURCE INFORMATION SYSTEM,MHI762,SCHOOL OF MANAGEMENT,3
HOSPITALITY MANAGEMENT,MHM752,SCHOOL OF MANAGEMENT,3
HUMAN RESOURCE MANAGEMENT,MHR612,SCHOOL OF MANAGEMENT,3
INTERNATIONAL BUSINESS,MIB603,SCHOOL OF MANAGEMENT,3
ISLAMIC ECONOMICS,MIE741,SCHOOL OF MANAGEMENT,3
ISLAMIC FINANCIAL INSTITUTIONS AND MARKET,MIF743,SCHOOL OF MANAGEMENT,3
INTERNATIONAL FINANCE,MIF724,SCHOOL OF MANAGEMENT,3
INTERNATIONAL HUMAN RESOURCE MANAGEMENT,MIH640,SCHOOL OF MANAGEMENT,3
INTERNATIONAL MARKETING,MIM722,SCHOOL OF MANAGEMENT,3
INDUSTRIAL RELATIONS PRACTICES,MIP636,SCHOOL OF MANAGEMENT,3
INDUSTRIAL PSYCHOLOGY,MIP763,SCHOOL OF MANAGEMENT,3
FOUNDATION OF KNOWLEDGE MANAGEMENT,MFK635,SCHOOL OF MANAGEMENT,3
MARKETING MANAGEMENT,MKM602,SCHOOL OF MANAGEMENT,3
LAW AND ETHICS,MLE704,SCHOOL OF MANAGEMENT,3
LEADERSHIP AND ORGANISATIONAL CHANGE,MLO632,SCHOOL OF MANAGEMENT,3
INTERNATIONAL LOGISTICS AND TRANSPORT,MLT723,SCHOOL OF MANAGEMENT,3
SMALL BUSINESS MANAGEMENT,MSB726,SCHOOL OF MANAGEMENT,3
MARKET RESEARCH AND DEVELOPMENT,MNB727,SCHOOL OF MANAGEMENT,3
MANAGEMENT OF INFORMATION SYSTEM,MIS613,SCHOOL OF MANAGEMENT,3
MANAGEMENT AND ORGANISATION,MMO611,SCHOOL OF MANAGEMENT,3
PROJECT MANAGEMENT,MMP706,SCHOOL OF MANAGEMENT,3
SUPPLY CHAIN MANAGEMENT,MMS707,SCHOOL OF MANAGEMENT,3
MULTINATIONAL CORPORATION,MNC721,SCHOOL OF MANAGEMENT,3
ORGANISATIONAL BEHAVIOUR,MOB607,SCHOOL OF MANAGEMENT,3
ORGANISATIONAL LEARNING,MOL637,SCHOOL OF MANAGEMENT,3
OPERATION MANAGEMENT,MOM705,SCHOOL OF MANAGEMENT,3
OCCUPATIONAL SAFETY AND HEALTH,MOS639,SCHOOL OF MANAGEMENT,3
PERFORMANCE MANAGEMENT,MPM633,SCHOOL OF MANAGEMENT,3
MANAGING PEOPLE IN ORGANISATIONS,MPO601,SCHOOL OF MANAGEMENT,4
PURCHASING AND PROCUREMENT MANAGEMENT,MPP737,SCHOOL OF MANAGEMENT,3
QUANTITATIVE METHODS AND DECISION ANALYSIS,MQM608,SCHOOL OF MANAGEMENT,3
TOTAL QUALITY MANAGEMENT,MTQ709,SCHOOL OF MANAGEMENT,3
QUALITY ASSURANCE AND CONTROL,MQA710,SCHOOL OF MANAGEMENT,3
QUALITY AND CHANGE MANAGEMENT,MQC708,SCHOOL OF MANAGEMENT,3
RISK ANALYSIS AND MANAGEMENT,MRA733,SCHOOL OF MANAGEMENT,3
ISLAMIC FINANCIAL REGULATIONS AND LAW,MRL744,SCHOOL OF MANAGEMENT,3
"ENVIRONMENTAL, OCCUPATIONAL SAFETY AND HEALTH RISK MANAGEMENT",MEO734,SCHOOL OF MANAGEMENT,3
WAREHOUSE AND DISTRIBUTION,MWD738,SCHOOL OF MANAGEMENT,3
SHARI'AH FUNDAMENTALS FOR TAKAFUL MANAGERS,MSF748,SCHOOL OF MANAGEMENT,3
STRATEGIC MANAGEMENT-ASIAN BUSINESS,MSM606,SCHOOL OF MANAGEMENT,4
"STRATEGIC HUMAN RESOURCE PLANNING, RECRUITMENT AND SELECTION",MSR631,SCHOOL OF MANAGEMENT,3
SUPPLY CHAIN STRATEGY,MSS736,SCHOOL OF MANAGEMENT,3
TECHNICAL AND ACCOUNTING ASPECTS OF TAKAFUL,MTA749,SCHOOL OF MANAGEMENT,3
HUMAN RESOURCE TRAINING AND DEVELOPMENT,MTD638,SCHOOL OF MANAGEMENT,3
TOURISM AND HOSPITALITY MARKETING,MTH751,SCHOOL OF MANAGEMENT,3
TAKAFUL OPERATIONS AND MANAGEMENT,MTO747,SCHOOL OF MANAGEMENT,3
TAKAFUL PRODUCTS,MTP746,SCHOOL OF MANAGEMENT,3
VENTURE CAPITAL AND FINANCING,MVF729,SCHOOL OF MANAGEMENT,3
RESEARCH METHODOLOGY,MRM614,SCHOOL OF MANAGEMENT,3
SERVICE QUALITY MANAGEMENT,MSQ501,SCHOOL OF MANAGEMENT,3
EVENT MANAGEMENT,MEM503,SCHOOL OF MANAGEMENT,3
INTERNATIONAL FINANCE,MFI411,SCHOOL OF MANAGEMENT,3
FINANCIAL MARKETS AND INSTITUTIONS,MFM410,SCHOOL OF MANAGEMENT,3
BUSINESS COMMUNICATION,MBC502,SCHOOL OF MANAGEMENT,3
PROJECT MANAGEMENT,MPM505,SCHOOL OF MANAGEMENT,3
RECORD MANAGEMENT,MRM504,SCHOOL OF MANAGEMENT,3
MARKETING MANAGEMENT,EMB601,SCHOOL OF MANAGEMENT,3
MANAGERIAL ECONOMICS,EMB602,SCHOOL OF MANAGEMENT,3
ORGANIZATION BEHAVIOUR,EMB603,SCHOOL OF MANAGEMENT,3
MANAGERIAL ACCOUNTING,EMB604,SCHOOL OF MANAGEMENT,3
FINANCIAL MANAGEMENT,EMB605,SCHOOL OF MANAGEMENT,3
STRATEGIC MANAGEMENT,EMB606,SCHOOL OF MANAGEMENT,3
INTERNATIONAL BUSINESS,EMB507,SCHOOL OF MANAGEMENT,3
HUMAN RESOURCE MANAGEMENT,EMB608,SCHOOL OF MANAGEMENT,3
PROJECT MANAGEMENT,EMB609,SCHOOL OF MANAGEMENT,3
SUPPLY CHAIN MANAGEMENT,EMB610,SCHOOL OF MANAGEMENT,3
BUSINESS STATISTICS,EMB611,SCHOOL OF MANAGEMENT,3
BUSINESS RESEARCH METHODS,EMB612,SCHOOL OF MANAGEMENT,3
PROJECT PAPER,EMB613,SCHOOL OF MANAGEMENT,6
MANAGERIAL LEADERSHIP IN ASIA,MLA864,SCHOOL OF MANAGEMENT,4
ACCOUNTING AND FINANCE DECISION MAKING,MAF865,SCHOOL OF MANAGEMENT,4
BUSINESS STRATEGY AND POLICY,MBP866,SCHOOL OF MANAGEMENT,4
INTERNATIONAL BUSINESS,MIB867,SCHOOL OF MANAGEMENT,4
MARKETING AND GLOBAL BUSINESS,MGB868,SCHOOL OF MANAGEMENT,4
NEW BUSINESS VENTURE,MNV869,SCHOOL OF MANAGEMENT,4
RESEARCH METHOD FOR BUSINESS,MMB870,SCHOOL OF MANAGEMENT,4
PROPOSAL DEFENSE,MPD871,SCHOOL OF MANAGEMENT,10
RESEARCH COLLOQUIUM,MRC872,SCHOOL OF MANAGEMENT,10
INTERNATIONAL BUSINESS,EMB607,SCHOOL OF MANAGEMENT,3
ETHICAL HACKING - METHOD AND TECHNIQUES,CEH400,SCHOOL OF SCIENCE & TECHNOLOGY,4
CURRICULUM AND ASSESSMENT IN MATHEMATICS EDUCATION,EMM642,SCHOOL OF EDUCATION AND COGNITIVE SCIENCE,3
TRENDS AND ISSUES IN MATHEMATICS EDUCATION,EMM643,SCHOOL OF EDUCATION AND COGNITIVE SCIENCE,3
RESEARCH IN MATHEMATICS EDUCATION,EMM651,SCHOOL OF EDUCATION AND COGNITIVE SCIENCE,3
PROJECT PAPER IN MATHEMATICS EDUCATION,EMM652,SCHOOL OF EDUCATION AND COGNITIVE SCIENCE,3
DECISION SUPPORT SYSTEMS,SDS610,"SCHOOL OF ARTS, HUMANITIES & SOCIAL SCIENCES",3
ACCOUNTING AND FINANCE FOR MANAGERS,EMB616,SCHOOL OF MANAGEMENT,3
TRENDS AND ISSUES IN TEACHING BAHASA MALAYSIA,EBM642,SCHOOL OF EDUCATION AND COGNITIVE SCIENCE,3
LITERATURE IN TEACHING BAHASA MALAYSIA,EBM643,SCHOOL OF EDUCATION AND COGNITIVE SCIENCE,3
MANAGING PEOPLE IN ORGANISATION,EMB614,SCHOOL OF MANAGEMENT,3
PROJECT PAPER IN TEACHING BAHASA MALAYSIA,EBM652,SCHOOL OF EDUCATION AND COGNITIVE SCIENCE,3
RESEARCH IN TEACHING BAHASA MALAYSIA,EBM651,SCHOOL OF EDUCATION AND COGNITIVE SCIENCE,3
BEGINNER'S ENGLISH,SEP001,"SCHOOL OF ARTS, HUMANITIES & SOCIAL SCIENCES",0
PRE-INTERMEDIATE ENGLISH,SEP002,"SCHOOL OF ARTS, HUMANITIES & SOCIAL SCIENCES",0
INTERMEDIATE ENGLISH,SEP003,"SCHOOL OF ARTS, HUMANITIES & SOCIAL SCIENCES",0
ADVANCED ENGLISH,SEP004,"SCHOOL OF ARTS, HUMANITIES & SOCIAL SCIENCES",0
STRATEGIC MANAGEMENT ASIAN BUSINESS,EMB615,SCHOOL OF MANAGEMENT,3
FINANCIAL ACCOUNTING AND THEORY,MAT765,SCHOOL OF MANAGEMENT,3
LEGAL AND ETHICAL ASPECTS OF HEALTHCARE,MLE769,SCHOOL OF MANAGEMENT,3
MANAGEMENT OF AGED CARE SERVICES,MMA771,SCHOOL OF MANAGEMENT,3
HEALTH POLICY AND INTERNATIONAL HEALTH SYSTEM,MHP770,SCHOOL OF MANAGEMENT,3
HEALTHCARE INFORMATION MANAGEMENT & E-HEALTH,MHM768,SCHOOL OF MANAGEMENT,3
OPERATIONAL MANAGEMENT OF CLINICAL & SUPPORTIVE SERVICES,MOC767,SCHOOL OF MANAGEMENT,3
INTERNATIONAL ACCOUNTING,MIA766,SCHOOL OF MANAGEMENT,3
ENTREPRENEURSHIP AND INNOVATION,EMB617,SCHOOL OF MANAGEMENT,3
OPERATION MANAGEMENT,EMB618,SCHOOL OF MANAGEMENT,3
EDUCATION PSCHOLOGY,OP881,SCHOOL OF EDUCATION AND COGNITIVE SCIENCE,3
ENHANCING TEACHER PROFFESIRNALISM,OP882,SCHOOL OF EDUCATION AND COGNITIVE SCIENCE,3
CHILD GROWTH & DEVELOPMENT,OP883,SCHOOL OF EDUCATION AND COGNITIVE SCIENCE,3
QUALITY & CHANGE MANAGEMEN,EMB619,SCHOOL OF MANAGEMENT,3
SMALL BUSINESS MANAGEMENT,EMB620,SCHOOL OF MANAGEMENT,3
FUNDAMENTAL OF ENTERPRISE NETWORKING,CEN400,SCHOOL OF SCIENCE & TECHNOLOGY,3
SOFTWARE CONSTRUCTIONS,CSC400,SCHOOL OF SCIENCE & TECHNOLOGY,3
WAN TECHNOLOGIES,CWT401,SCHOOL OF SCIENCE & TECHNOLOGY,3
OBSERVATION AND ASSESSMENT IN THE EARLY YEARS,ECE124,SCHOOL OF EDUCATION AND COGNITIVE SCIENCE,3
PRACTICUM,ETP332,SCHOOL OF EDUCATION AND COGNITIVE SCIENCE,8
LEADERSHIP AND MANAGEMENT OF EARLY CHILDHOOD CENTRES,ECE135,"SCHOOL OF ARTS, HUMANITIES & SOCIAL SCIENCES",3
ACCOUNTING INFORMATION SYSTEM,CAS351,SCHOOL OF SCIENCE & TECHNOLOGY,3
BASIC DRAWING,SBD101,"SCHOOL OF ARTS, HUMANITIES & SOCIAL SCIENCES",4
SIRAH,SS1 212,"SCHOOL OF ARTS, HUMANITIES & SOCIAL SCIENCES",3
USUL FIQH,SUF223,"SCHOOL OF ARTS, HUMANITIES & SOCIAL SCIENCES",3
AQIDAH,SAK214,"SCHOOL OF ARTS, HUMANITIES & SOCIAL SCIENCES",3
CREATIVE THINKING,SCT102,SCHOOL OF MANAGEMENT,3
PHILOSOPHY AND SOCIOLOGY OF EDUCATION,EPS613,SCHOOL OF EDUCATION AND COGNITIVE SCIENCE,4
CURRICULUM AND INSTRUCTION IN TEACHING TAMIL LANGUAGE,ETT642,SCHOOL OF EDUCATION AND COGNITIVE SCIENCE,3
TRENDS AND ISSUES IN TEACHING TAMIL LANGUAGE,ETT643,SCHOOL OF EDUCATION AND COGNITIVE SCIENCE,3
PROJECT PAPER IN TEACHING TAMIL LANGUAGE,ETT653,SCHOOL OF EDUCATION AND COGNITIVE SCIENCE,6
PROJECT PAPER IN CURRICULUM & INSTRUCTION,EPC653,SCHOOL OF EDUCATION AND COGNITIVE SCIENCE,6
PROJECT PAPER IN EDUCATIONAL PSYCHOLOGY,EPP653,SCHOOL OF EDUCATION AND COGNITIVE SCIENCE,6
PROJECT PAPER IN INSTRUCTIONAL TECHNOLOGY,EPT653,SCHOOL OF EDUCATION AND COGNITIVE SCIENCE,6
PROJECT PAPER IN NURSING EDUCATION,EPN653,SCHOOL OF EDUCATION AND COGNITIVE SCIENCE,6
PROJECT PAPER IN TEACHING ENGLISH AS SECOND LANGUAGE,EPE653,SCHOOL OF EDUCATION AND COGNITIVE SCIENCE,6
PROJECT PAPER IN SCIENCE EDUCATION,ESC653,SCHOOL OF EDUCATION AND COGNITIVE SCIENCE,6
PROJECT PAPER IN EDUCATIONAL MANAGEMENT,EMA653,SCHOOL OF EDUCATION AND COGNITIVE SCIENCE,6
PROJECT PAPER IN EDUCATIONAL ASSESSMENT AND EVALUATION,EME653,SCHOOL OF EDUCATION AND COGNITIVE SCIENCE,6
PROJECT PAPER IN HIGHER EDUCATION TEACHING,EHT653,SCHOOL OF EDUCATION AND COGNITIVE SCIENCE,6
PROJECT PAPER IN EARLY CHILDHOOD EDUCATION,ECH653,SCHOOL OF EDUCATION AND COGNITIVE SCIENCE,6
PROJECT PAPER IN MATHEMATICS EDUCATION,EMM653,SCHOOL OF EDUCATION AND COGNITIVE SCIENCE,6
PROJECT PAPER IN TEACHING BAHASA MALAYSIA,EBM653,SCHOOL OF EDUCATION AND COGNITIVE SCIENCE,6
SOCIO-EMOTIONAL DEVELOPMENT & GUIDING YOUNG CHILDREN,ECE134,SCHOOL OF EDUCATION AND COGNITIVE SCIENCE,3
SOFTWARE INTEGRATION & ARCHITECTURE,CSI200,SCHOOL OF SCIENCE & TECHNOLOGY,4
NETWORKING INTERFACE AND PROGRAMMING,CNI200,SCHOOL OF SCIENCE & TECHNOLOGY,4
PROFESSIONAL INDUSTRIAL PROJECT I,CIT402,SCHOOL OF SCIENCE & TECHNOLOGY,6
PLATFORM-BASED ENTERPRISE PROGRAMMING,CPE100,SCHOOL OF SCIENCE & TECHNOLOGY,4
DATABASE DESIGN AND PROGRAMMING,CDD200,SCHOOL OF SCIENCE & TECHNOLOGY,4
WEB DEVELOPMENT AND TECHNOLOGY,CWD200,SCHOOL OF SCIENCE & TECHNOLOGY,4
SERVICE ORIENTED ARCHITECTURE AND WEB SERVICES,CSO200,SCHOOL OF SCIENCE & TECHNOLOGY,4
BUSINESS OPERATIONS AND SERVICES,CBO300,SCHOOL OF SCIENCE & TECHNOLOGY,4
PROFESSIONAL INDUSTRIAL PROJECT II,CIT403,SCHOOL OF SCIENCE & TECHNOLOGY,6
SECURED SOFTWARE DEVELOPMENT,CSS401,SCHOOL OF SCIENCE & TECHNOLOGY,4
ASAS PEMBELAJARAN BAHASA ARAB,SAB221,"SCHOOL OF ARTS, HUMANITIES & SOCIAL SCIENCES",3
PENGAJARAN AL-QURAN (ULUM AL-QURAN),SUQ241,"SCHOOL OF ARTS, HUMANITIES & SOCIAL SCIENCES",3
AKHLAQ,SAH222,"SCHOOL OF ARTS, HUMANITIES & SOCIAL SCIENCES",3
APLIKASI FIQH,SAF226,"SCHOOL OF ARTS, HUMANITIES & SOCIAL SCIENCES",3
HADITH,SHA236,"SCHOOL OF ARTS, HUMANITIES & SOCIAL SCIENCES",3
"MUSIC, MOVEMENT AND PLAY FOR YOUNG CHILDREN",ECE341,SCHOOL OF EDUCATION AND COGNITIVE SCIENCE,4
ADMINISTRATION AND MANAGEMENT OF EARLY CHILDHOOD CENTRES,ECE414,SCHOOL OF EDUCATION AND COGNITIVE SCIENCE,3
BAHASA ARAB KOMUNIKASI,SBA233,"SCHOOL OF ARTS, HUMANITIES & SOCIAL SCIENCES",3
TAFSIR,STA229,"SCHOOL OF ARTS, HUMANITIES & SOCIAL SCIENCES",3
ULUM HADITH,SUH239,"SCHOOL OF ARTS, HUMANITIES & SOCIAL SCIENCES",3
DEVELOPING WEB APPLICATION USING ASP.NET 2.0,CPC100,SCHOOL OF SCIENCE & TECHNOLOGY,3
DEVELOPING DATABASE APPLICATION USING ADO.NET,CPC101,SCHOOL OF SCIENCE & TECHNOLOGY,3
DATA STRUCTURE AND ALGORITHM,CPC102,SCHOOL OF SCIENCE & TECHNOLOGY,3
GUIDANCE IN SCHOOLS,EGL121,SCHOOL OF EDUCATION AND COGNITIVE SCIENCE,3
GUIDANCE FOR CHILDREN,EGL313,SCHOOL OF EDUCATION AND COGNITIVE SCIENCE,3
MANAGING LEADERSHIP PERFORMANCE,MLP781,SCHOOL OF MANAGEMENT,3
PERBANDINGAN AGAMA,SPA231,"SCHOOL OF ARTS, HUMANITIES & SOCIAL SCIENCES",3
INSTITUSI ISLAM DI MALAYSIA,SIM234,"SCHOOL OF ARTS, HUMANITIES & SOCIAL SCIENCES",3
CREATIVE COPYWRITING,SCC303,"SCHOOL OF ARTS, HUMANITIES & SOCIAL SCIENCES",3
CREATIVE ILLUSTRATION,SCI302,"SCHOOL OF ARTS, HUMANITIES & SOCIAL SCIENCES",4
DIGITAL PHOTOGRAPHY,SDP301,"SCHOOL OF ARTS, HUMANITIES & SOCIAL SCIENCES",3
SERVICE MARKETING,MSM682,SCHOOL OF MANAGEMENT,3
SEJARAH KHILAFAH ISLAMIYYAH,SKI232,"SCHOOL OF ARTS, HUMANITIES & SOCIAL SCIENCES",3
TASAWWUR ISLAM,STI224,"SCHOOL OF ARTS, HUMANITIES & SOCIAL SCIENCES",3
FIQH MUAMALAT,SFM242,"SCHOOL OF ARTS, HUMANITIES & SOCIAL SCIENCES",3
ENGLISH PROFICIENCY 1,FEN101,SCHOOL OF FOUNDATION STUDIES,2
INTRODUCTION TO INFORMATION TECHNOLOGY,FIT102,SCHOOL OF FOUNDATION STUDIES,2
MATHEMATICS 1,FMM103,SCHOOL OF FOUNDATION STUDIES,3
STATISTICS 1,FSS104,SCHOOL OF FOUNDATION STUDIES,3
ECONOMICS 1,FEC105,SCHOOL OF FOUNDATION STUDIES,5
ACCOUNTING 1,FAF106,SCHOOL OF FOUNDATION STUDIES,5
LAW 1,FLL111,SCHOOL OF FOUNDATION STUDIES,5
ENGLISH PROFICIENCY 2,FEN111,SCHOOL OF FOUNDATION STUDIES,2
PERSONAL DEVELOPMENT,FPD112,SCHOOL OF FOUNDATION STUDIES,2
MATHEMATICS 2,FMM113,SCHOOL OF FOUNDATION STUDIES,3
STATISTICS 2,FSS114,SCHOOL OF FOUNDATION STUDIES,3
ECONOMICS 2,FEC115,SCHOOL OF FOUNDATION STUDIES,5
ACCOUNTING 2,FAF116,SCHOOL OF FOUNDATION STUDIES,5
LAW 2,FLL121,SCHOOL OF FOUNDATION STUDIES,5
PACKAGING DESIGN,SPD301,"SCHOOL OF ARTS, HUMANITIES & SOCIAL SCIENCES",4
ENGLISH PLACEMENT TEST,PT001,SCHOOL OF FOUNDATION STUDIES,10
PRE-ELEMENTARY ENGLISH,PRA1,SCHOOL OF FOUNDATION STUDIES,720
ELEMENTARY ENGLISH 1,P0A1,SCHOOL OF FOUNDATION STUDIES,720
ELEMENTARY ENGLISH 2,P0A2,SCHOOL OF FOUNDATION STUDIES,720
INTERMEDIATE ENGLISH 1,P0B1,SCHOOL OF FOUNDATION STUDIES,720
PREPARATORY ENGLISH (PTE),P0B21,SCHOOL OF FOUNDATION STUDIES,720
PREPARATORY ENGLISH (IELTS),P0B22,SCHOOL OF FOUNDATION STUDIES,760
PREPARATORY ENGLISH (MUET),P0B23,SCHOOL OF FOUNDATION STUDIES,640
ADVANCED ENGLISH 1,P0C1,SCHOOL OF FOUNDATION STUDIES,936
ADVANCED ENGLISH 2,P0C2,SCHOOL OF FOUNDATION STUDIES,936
TECHNOLOGY MANAGEMENT,MTM681,SCHOOL OF MANAGEMENT,3
TECHNOLOGY FORESIGHT,MFT682,SCHOOL OF MANAGEMENT,3
DIGITAL TYPOGRAPHY,CDT100,SCHOOL OF SCIENCE & TECHNOLOGY,3
FUNDAMENTAL OF DESIGN,CFD100,SCHOOL OF SCIENCE & TECHNOLOGY,3
BUSINESS ETHICS AND CORPORATE GOVERNANCE,MBE201,SCHOOL OF MANAGEMENT,3
HISTORY OF VISUAL COMMUNICATION,CHV100,SCHOOL OF SCIENCE & TECHNOLOGY,3
BASIC PHOTOGRAPHY,CBP100,SCHOOL OF SCIENCE & TECHNOLOGY,3
DIGITAL VECTOR DESIGN,CDV100,SCHOOL OF SCIENCE & TECHNOLOGY,3
3D ANIMATION STUDIES 1,CAS301,SCHOOL OF SCIENCE & TECHNOLOGY,3
PHOTOGRAPHY AND DIGITAL MEDIA,CPD300,SCHOOL OF SCIENCE & TECHNOLOGY,4
3D ANIMATION STUDIES 2,CAS302,SCHOOL OF SCIENCE & TECHNOLOGY,3
DIGITAL PHOTOGRAPHY AND NEW MEDIA,CDP200,SCHOOL OF SCIENCE & TECHNOLOGY,3
BASIC 3D MODELING,CBD317,SCHOOL OF SCIENCE & TECHNOLOGY,4
ADVANCED 3D MODELING,CAD337,SCHOOL OF SCIENCE & TECHNOLOGY,4
MATERIAL AND SURFACE TEXTURE STUDIES,CMM201,SCHOOL OF SCIENCE & TECHNOLOGY,3
CHARACTER ANALYTICAL STUDIES AND PROPORTION,CSD201,SCHOOL OF SCIENCE & TECHNOLOGY,3
DESKTOP PUBLISHING,SDP403,"SCHOOL OF ARTS, HUMANITIES & SOCIAL SCIENCES",3
CORPORATE DESIGN,SCD402,"SCHOOL OF ARTS, HUMANITIES & SOCIAL SCIENCES",3
PENGANTAR TASAWUF,STA237,"SCHOOL OF ARTS, HUMANITIES & SOCIAL SCIENCES",3
HAFAZAN AL-QURAN,SHQ243,"SCHOOL OF ARTS, HUMANITIES & SOCIAL SCIENCES",3
PENGANTAR PEMIKIRAN ISLAM,SPI238,"SCHOOL OF ARTS, HUMANITIES & SOCIAL SCIENCES",3
RELIGION IN INFORMATION LANGUAGE,CPC111,SCHOOL OF SCIENCE & TECHNOLOGY,2
CHARACTER DEVELOPMENT IN MASTERING LANGUAGE,CPC112,SCHOOL OF SCIENCE & TECHNOLOGY,2
DIGITAL TECHNIQUE,CPC113,SCHOOL OF SCIENCE & TECHNOLOGY,3
BASIC SYSTEM OF TELECOMMUNICATION,CPC114,SCHOOL OF SCIENCE & TECHNOLOGY,2
NETWORK OPERATING SYSTEM,CPC115,SCHOOL OF SCIENCE & TECHNOLOGY,3
REPAIRING AND MAINTENANCE,CPC116,SCHOOL OF SCIENCE & TECHNOLOGY,5
LAN AND WAN TECHNOLOGY,CPC117,SCHOOL OF SCIENCE & TECHNOLOGY,3
SECURITY AND SAFETY,CPC118,SCHOOL OF SCIENCE & TECHNOLOGY,2
EFFECTIVE COMMUNICATION,CPC103,SCHOOL OF SCIENCE & TECHNOLOGY,2
SQL SERVER ADMINISTRATION,CPC104,SCHOOL OF SCIENCE & TECHNOLOGY,2
DEVELOPING WINDOWS APPLICATION USING .NET FRAMEWORK 2.0,CPC105,SCHOOL OF SCIENCE & TECHNOLOGY,3
INTRODUCTION TO WEB CONTENT DEVELOPMENT,CPC106,SCHOOL OF SCIENCE & TECHNOLOGY,2
DEVELOPING DISTRIBUTED APPLICATION USING .NET FRAMEWORK,CPC107,SCHOOL OF SCIENCE & TECHNOLOGY,4
WEB COMPONENT DEVELOPMENT WITH SERVLET AND JSP TECHNOLOGIES,CPC108,SCHOOL OF SCIENCE & TECHNOLOGY,4
ENTERPRISE APPLICATION DEVELOPMENT PROJECT,CPC109,SCHOOL OF SCIENCE & TECHNOLOGY,3
INTRODUCTION TO ENTERPRISE JAVA BEAN,CPC110,SCHOOL OF SCIENCE & TECHNOLOGY,2
2D GAME PROGRAMMING,CPJ126,SCHOOL OF SCIENCE & TECHNOLOGY,3
INTRODUCTION TO ICT,CPC119,SCHOOL OF SCIENCE & TECHNOLOGY,2
PENGANTAR SYARIAH,SPS213,"SCHOOL OF ARTS, HUMANITIES & SOCIAL SCIENCES",3
PENGANTAR EKONOMI ISLAM,SEI235,"SCHOOL OF ARTS, HUMANITIES & SOCIAL SCIENCES",3
PENGAJIAN DAKWAH,SPD228,"SCHOOL OF ARTS, HUMANITIES & SOCIAL SCIENCES",3
PENGANTAR ILMU MANTIQ,SIM225,"SCHOOL OF ARTS, HUMANITIES & SOCIAL SCIENCES",3
DIGITAL MARKETING,MDM683,SCHOOL OF MANAGEMENT,3
BRAND DESIGN,SBD301,"SCHOOL OF ARTS, HUMANITIES & SOCIAL SCIENCES",4
VISUAL COMMUNICATION,SVC401,"SCHOOL OF ARTS, HUMANITIES & SOCIAL SCIENCES",4
